<svg width="0" height="0" class="hidden">
  <symbol xmlns="http://www.w3.org/2000/svg" viewBox="0 0 32 32" id="social-1_logo-500px">
    <path fill-rule="evenodd" clip-rule="evenodd" fill="#444" d="M31.5 12.8c-.3-1-.8-1.8-1.5-2.5-.6-.7-1.4-1.3-2.4-1.7-.9-.4-2-.6-3.1-.6-.9 0-1.8.1-2.6.4-.8.3-1.5.7-2.2 1.2-.7.5-1.3 1-1.9 1.7-.6.6-1.2 1.3-1.7 2-.6-.7-1.1-1.3-1.7-2-.6-.6-1.2-1.2-1.9-1.7s-1.4-.9-2.2-1.2c-1-.3-1.8-.4-2.8-.4-1.1 0-2.2.2-3.1.6-1 .4-1.7.9-2.4 1.7-.6.7-1.1 1.5-1.5 2.5-.3 1-.5 2-.5 3.1s.2 2.2.5 3.2.8 1.8 1.5 2.6c.6.7 1.4 1.3 2.4 1.7.9.4 2 .6 3.2.6.9 0 1.7-.1 2.5-.4.8-.3 1.5-.6 2.2-1.1.7-.4 1.3-1 1.9-1.6.6-.6 1.2-1.2 1.7-1.8.6.6 1.1 1.3 1.7 1.8.6.6 1.3 1.1 1.9 1.6.7.5 1.4.8 2.2 1.1.8.3 1.6.4 2.5.4 1.2 0 2.2-.2 3.2-.6.9-.4 1.7-1 2.4-1.7.6-.7 1.1-1.6 1.5-2.6.3-1 .5-2 .5-3.2s0-2.2-.3-3.1zm-19.3 4.6c-.4.4-.9.8-1.4 1.1-.5.3-1 .6-1.6.8-.5.2-1.1.3-1.7.3-1.1 0-1.9-.3-2.5-1-.6-.7-.9-1.6-.9-2.6s.3-1.9.9-2.6c.6-.7 1.5-1.1 2.6-1.1.6 0 1.1.1 1.7.4.5.2 1 .6 1.5.9.5.4.9.8 1.4 1.2.4.5.8.9 1.2 1.2-.4.5-.8 1-1.2 1.4zM27 18.6c-.6.7-1.4 1-2.5 1-.6 0-1.2-.1-1.7-.3-.5-.2-1.1-.5-1.6-.8-.5-.3-1-.7-1.4-1.1-.4-.4-.8-.8-1.2-1.3.3-.4.7-.8 1.2-1.2.4-.4.9-.9 1.4-1.2.5-.4 1-.7 1.5-.9.5-.2 1.1-.4 1.7-.4 1.1 0 1.9.4 2.6 1.1.6.7.9 1.6.9 2.6 0 .9-.3 1.8-.9 2.5z"></path>
  </symbol>
  <symbol xmlns="http://www.w3.org/2000/svg" viewBox="0 0 32 32" id="social-1_logo-behance">
    <path fill="#444" d="M12.9 14.9s3-.2 3-3.8c0-3.6-2.5-5.3-5.6-5.3H0v19.8h10.4s6.3.2 6.3-5.9c-.1.2.2-4.8-3.8-4.8zM4.6 9.4h5.7s1.4 0 1.4 2.1-.8 2.4-1.8 2.4H4.6V9.4zm5.5 12.8H4.6v-5.3h5.8s2.1 0 2.1 2.7c-.1 2.3-1.6 2.6-2.4 2.6zM25 10.9c-7.6 0-7.6 7.6-7.6 7.6s-.5 7.6 7.6 7.6c0 0 6.8.4 6.8-5.3h-3.5s.1 2.1-3.2 2.1c0 0-3.5.2-3.5-3.5h10.3c0 .1 1.2-8.5-6.9-8.5zm3.1 6h-6.5s.4-3.1 3.5-3.1 3 3.1 3 3.1zM20.8 7H29v2h-8.2z"></path>
  </symbol>
  <symbol xmlns="http://www.w3.org/2000/svg" viewBox="0 0 32 32" id="social-1_logo-blogger">
    <path fill-rule="evenodd" clip-rule="evenodd" fill="#444" d="M31.1 12.4c-.7-.3-3.6 0-4.4-.7-.6-.5-.6-1.5-.8-2.7-.4-2.1-.5-2.6-.9-3.4-1.4-3-4.8-5.5-7.8-5.5h-7.1C4.6 0 .1 4.6.1 10.1v11.8C.1 27.5 4.6 32 10.2 32h11.6c5.6 0 10.1-4.5 10.1-10.1l.1-8.2c-.1 0-.1-1-.9-1.3zM10.3 8.3h5.6c1.1 0 1.9.9 1.9 1.9 0 1.1-.9 1.9-1.9 1.9h-5.6c-1.1 0-1.9-.9-1.9-1.9 0-1.1.8-1.9 1.9-1.9zm11.4 15.4H10.3c-1.1 0-1.9-.9-1.9-1.9 0-1.1.9-1.9 1.9-1.9h11.4c1.1 0 1.9.9 1.9 1.9 0 1-.9 1.9-1.9 1.9z"></path>
  </symbol>
  <symbol xmlns="http://www.w3.org/2000/svg" viewBox="0 0 32 32" id="social-1_logo-buffer">
    <path fill="#444" d="M15.2.2L.8 6.9c-.4.2-.4.8 0 1l14.5 6.7c.4.2.9.2 1.4 0l14.5-6.7c.4-.2.4-.8 0-1L16.8.2c-.5-.3-1.1-.3-1.6 0z"></path>
    <path fill="#444" d="M31.2 15.6l-3-1.4c-.4-.2-.9-.2-1.4 0l-10.2 4.7c-.4.2-.9.2-1.4 0L5.1 14.2c-.4-.2-.9-.2-1.4 0l-3 1.4c-.4.2-.4.8 0 1l14.5 6.7c.4.2.9.2 1.4 0l14.5-6.7c.6-.2.6-.8.1-1z"></path>
    <path fill="#444" d="M31.2 24.1l-3-1.4c-.4-.2-.9-.2-1.4 0l-10.2 4.7c-.4.2-.9.2-1.4 0L5.1 22.7c-.4-.2-.9-.2-1.4 0l-3 1.4c-.4.2-.4.8 0 1l14.5 6.7c.4.2.9.2 1.4 0l14.5-6.7c.6-.1.6-.8.1-1z"></path>
  </symbol>
  <symbol xmlns="http://www.w3.org/2000/svg" viewBox="0 0 32 32" id="social-1_logo-buysellads">
    <path fill="#444" d="M9.5 1h13L32 31h-8.9l-7-25.2-4.6 15.8h9L9.3 31H0z"></path>
  </symbol>
  <symbol xmlns="http://www.w3.org/2000/svg" viewBox="0 0 32 32" id="social-1_logo-codepen">
    <path fill="#444" d="M32 10.9v-.7s0-.1-.1-.1V10s0-.1-.1-.1l-.1-.1s-.1 0-.1-.1h-.1L16.8.2c-.5-.3-1.1-.3-1.5 0L.6 10H.5s-.1 0-.1.1l-.1.1-.1.1v.1s0 .1-.1.1V22s0 .1.1.1v.1s0 .1.1.1l.1.1s.1 0 .1.1h.1l14.6 9.8c.2.2.5.2.8.2.3 0 .5-.1.8-.2L31.4 22h.1s.1 0 .1-.1l.1-.1.1-.1v-.1s0-.1.1-.1V10.9c.1.2.1.1.1 0zm-14.6-7l10.8 7.2-4.8 3.2-6-4V3.9zm-2.8 0v6.4l-6 4-4.8-3.2 10.8-7.2zM2.8 13.7L6.2 16l-3.4 2.3v-4.6zm11.8 14.4L3.9 20.9l4.8-3.2 6 4v6.4zm1.4-8.8L11.1 16l4.9-3.3 4.9 3.3-4.9 3.3zm1.4 8.8v-6.4l6-4 4.8 3.2-10.8 7.2zm11.8-9.8L25.8 16l3.4-2.3v4.6z"></path>
  </symbol>
  <symbol xmlns="http://www.w3.org/2000/svg" viewBox="0 0 32 32" id="social-1_logo-creative-market">
    <path fill="#444" d="M32 12.5c0-1.2-.5-8.5-.5-8.5 0-1.2-.4-1.9-1-2.5-.5-.5-1.3-1-2.5-1 0 0-7.3-.5-8.5-.5-1.8 0-2.9-.1-5.1 2.2L.9 15.7c-.5.5-2.2 2.5.7 5.4l9.4 9.4c2.9 2.9 4.9 1.2 5.4.7l13.5-13.5c2.2-2.3 2.1-3.5 2.1-5.2zm-12.7 3.9l4.1 1.9-1.5 2.7-3.8-2.5c-.1-.1-.2-.1-.3-.1-.1 0-.2 0-.3.1-.2.1-.3.3-.3.5l.3 4.5h-3l.2-4.5c0-.2-.1-.4-.3-.5-.2-.1-.4-.1-.5 0L10.4 21l-1.6-2.6 4.1-2c.2-.1.3-.3.3-.5s-.1-.4-.3-.5l-4.1-1.9 1.5-2.7 3.8 2.5c.2.1.4.1.5 0 .2-.1.3-.3.3-.5l-.3-4.5h3l-.2 4.5c0 .2.1.4.3.5.2.1.4.1.5 0l3.7-2.5 1.6 2.6-4.1 2c-.2.1-.3.3-.3.5-.1.2 0 .4.2.5zm7-8.6c-1.1 0-1.9-.9-1.9-1.9 0-1.1.9-1.9 1.9-1.9 1.1 0 1.9.9 1.9 1.9 0 1.1-.9 1.9-1.9 1.9z"></path>
  </symbol>
  <symbol xmlns="http://www.w3.org/2000/svg" viewBox="0 0 32 32" id="social-1_logo-deviantart">
    <path fill="#444" d="M26 0h-5.9l-.8.8-2.7 5.3-.6.3H6v8h5.6l.3.5L6 26.1V32h5.9l.7-.7 2.8-5.3.6-.4h10v-8h-5.5l-.5-.5 6-11.2z"></path>
  </symbol>
  <symbol xmlns="http://www.w3.org/2000/svg" viewBox="0 0 32 32" id="social-1_logo-dribbble">
    <path fill-rule="evenodd" clip-rule="evenodd" fill="#444" d="M16 32C7.2 32 0 24.8 0 16S7.2 0 16 0s16 7.2 16 16-7.2 16-16 16zm13.5-13.8c-.5-.2-4.2-1.3-8.5-.6 1.8 4.9 2.5 8.9 2.7 9.7 3-2 5.2-5.3 5.8-9.1zm-8.2 10.4c-.2-1.2-1-5.4-2.9-10.4h-.1c-7.7 2.7-10.5 8-10.7 8.5 2.3 1.8 5.2 2.9 8.4 2.9 1.9.1 3.7-.3 5.3-1zM5.8 25.2c.3-.5 4.1-6.7 11.1-9 .2-.1.4-.1.5-.2-.3-.8-.7-1.6-1.1-2.3-6.8 2-13.4 2-14 1.9v.4c0 3.5 1.4 6.7 3.5 9.2zm-3.2-12c.6 0 6.2 0 12.6-1.7-2.3-4-4.7-7.4-5.1-7.9C6.4 5.5 3.5 9 2.6 13.2zM12.8 2.7c.4.5 2.9 3.9 5.1 8 4.9-1.8 6.9-4.6 7.2-4.9-2.4-2.1-5.6-3.4-9.1-3.4-1.1 0-2.2.1-3.2.3zm13.8 4.7c-.3.4-2.6 3.3-7.6 5.4.3.7.6 1.3.9 2 .1.2.2.5.3.7 4.5-.6 9.1.3 9.5.4-.1-3.2-1.2-6.2-3.1-8.5z"></path>
  </symbol>
  <symbol xmlns="http://www.w3.org/2000/svg" viewBox="0 0 32 32" id="social-1_logo-dropbox">
    <path fill="#444" d="M9.4 1.1L0 7.3l6.5 5.2L16 6.6z"></path>
    <path fill="#444" d="M0 17.7l9.4 6.1 6.6-5.5-9.5-5.8zm16 .6l6.6 5.5 9.4-6.1-6.5-5.2zm16-11l-9.4-6.2L16 6.6l9.5 5.9z"></path>
    <path fill="#444" d="M16 19.5L9.4 25l-2.8-1.8v2l9.4 5.7 9.5-5.7v-2L22.6 25z"></path>
  </symbol>
  <symbol xmlns="http://www.w3.org/2000/svg" viewBox="0 0 32 32" id="social-1_logo-envato">
    <path fill="#444" d="M25.9.2c1.5.7 7.4 13.3 2.3 24.2-4.1 8.8-14.3 8.8-19.4 5.7-4.4-2.6-11.2-11-3.7-21.2.3-.4 1.1-.3.9.8-.1.8-1.2 6.8.9 9.4.9 1.3 1.1.4 1.1.4s-.2-8.7 6.5-15.3C18.8.3 24.7-.4 25.9.2z"></path>
  </symbol>
  <symbol xmlns="http://www.w3.org/2000/svg" viewBox="0 0 32 32" id="social-1_logo-evernote">
    <path fill="#444" d="M5.3 6.2h3c.2 0 .3-.1.3-.3V2.6c0-.6.1-1.1.3-1.5L9 .9 3.1 6.7c.1-.1.3-.1.3-.2.5-.2 1.2-.3 1.9-.3zm23.4-.6c-.2-1.3-1-1.9-1.7-2.2-.7-.3-2.2-.5-4.1-.8-1.5-.2-3.3-.2-4.4-.1-.1-.9-.8-1.7-1.4-2-1.9-.7-4.7-.6-5.4-.4-.6.2-1.2.5-1.6 1-.4.4-.5.9-.5 1.5v3.3c0 .7-.5 1.2-1.2 1.2h-3c-.6 0-1.1.1-1.5.3-.4.1-.6.3-.8.6-.4.6-.5 1.2-.5 1.9 0 0 0 .6.1 1.6.1.8 1 6.6 1.9 8.4.3.7.6 1 1.2 1.3 1.5.6 4.8 1.3 6.3 1.5 1.6.2 2.5.6 3.1-.6 0 0 .1-.3.3-.7.5-1.5.6-2.9.6-3.9 0-.1.1-.1.1 0 0 .7-.1 3.1 1.7 3.8.7.3 2.2.5 3.8.7 1.4.2 2.4.7 2.4 4.3 0 2.2-.5 2.5-2.8 2.5-1.9 0-2.7.1-2.7-1.5 0-1.2 1.2-1.1 2.1-1.1.4 0 .1-.3.1-1.1s.5-1.2 0-1.2c-3.1-.1-5 0-5 3.9 0 3.6 1.4 4.2 5.8 4.2 3.5 0 4.7-.1 6.2-4.6.3-.9 1-3.6 1.4-8.1.4-2.9-.1-11.5-.5-13.7zm-6.1 9.5c-.4 0-.8 0-1.2.1.1-.9.5-2 1.8-1.9 1.4 0 1.6 1.4 1.6 2.3-.7-.3-1.4-.4-2.2-.5z"></path>
  </symbol>
  <symbol xmlns="http://www.w3.org/2000/svg" viewBox="0 0 32 32" id="social-1_logo-facebook">
    <path fill="#444" d="M30.7 0H1.3C.6 0 0 .6 0 1.3v29.3c0 .8.6 1.4 1.3 1.4H17V20h-4v-5h4v-4c0-4.1 2.6-6.2 6.3-6.2 1.8 0 3.3.2 3.7.2v4.3h-2.6c-2 0-2.5 1-2.5 2.4V15h5l-1 5h-4l.1 12h8.6c.7 0 1.3-.6 1.3-1.3V1.3C32 .6 31.4 0 30.7 0z"></path>
  </symbol>
  <symbol xmlns="http://www.w3.org/2000/svg" viewBox="0 0 32 32" id="social-1_logo-feedly">
    <path fill="#444" d="M30.2 14.6l-11-11c-.5-.5-1-1.1-1.7-1.4-.7-.3-1.5-.4-2.3-.2-.7.2-1.3.5-1.7 1-4.2 4.1-8.3 8.2-12.4 12.3-.5.5-.8 1.1-1 1.7-.3 1.2.1 2.5 1 3.4l8.7 8.7c.6.7 1.6 1 2.5 1h7.1c1.1.1 2.1-.3 2.9-1.1l7.9-7.9c.4-.4.9-.8 1.2-1.3.6-.9.7-2.2.4-3.2-.3-.8-1-1.4-1.6-2zM9.6 19.3c-.4.5-1.2.4-1.8.3-.5-.4-1-.9-1.5-1.5-.2-.3.1-.6.3-.8l8.1-8.1c.4-.4.7-.7 1.1-1 .4-.2.6.2.9.4.5.5 1.1 1 1.5 1.6.2.3 0 .6-.2.8-2.8 2.7-5.6 5.5-8.4 8.3zm8.6 6.4c-.4.5-.9 1-1.4 1.4-.5.1-1 .1-1.4 0-.5-.2-.8-.7-1.1-1-.3-.3-.7-.6-.3-1l1.8-1.8c.2-.2.6-.1.8.1l1.6 1.6c.1.1.2.4 0 .7zm-.2-7.3L13.4 23c-.4.5-1.2.4-1.8.3-.6-.4-1-.9-1.5-1.4-.3-.3 0-.7.2-.9l4.6-4.6c.3-.3.5-.6.9-.8.3-.1.6.2.8.4.5.5 1.1 1 1.6 1.6.2.3 0 .6-.2.8z"></path>
  </symbol>
  <symbol xmlns="http://www.w3.org/2000/svg" viewBox="0 0 32 32" id="social-1_logo-flickr">
    <path fill="#444" d="M30.7 0H1.3C.6 0 0 .6 0 1.3v29.3c0 .8.6 1.4 1.3 1.4h29.3c.7 0 1.3-.6 1.3-1.3V1.3C32 .6 31.4 0 30.7 0zM9.3 21.3C6.4 21.3 4 18.9 4 16s2.4-5.3 5.3-5.3 5.3 2.4 5.3 5.3c.1 2.9-2.3 5.3-5.3 5.3zm13.4 0c-2.9 0-5.3-2.4-5.3-5.3s2.4-5.3 5.3-5.3S28 13.1 28 16s-2.4 5.3-5.3 5.3z"></path>
  </symbol>
  <symbol xmlns="http://www.w3.org/2000/svg" viewBox="0 0 32 32" id="social-1_logo-github">
    <path fill-rule="evenodd" clip-rule="evenodd" fill="#444" d="M16 .4C7.2.4 0 7.6 0 16.4c0 7.1 4.6 13.1 10.9 15.2.8.1 1.1-.3 1.1-.8v-2.7c-4.5 1-5.4-2.1-5.4-2.1-.7-1.8-1.8-2.3-1.8-2.3-1.5-1 .1-1 .1-1 1.6.1 2.5 1.6 2.5 1.6 1.4 2.4 3.7 1.7 4.7 1.3.1-1 .6-1.7 1-2.1-3.6-.4-7.3-1.8-7.3-7.9 0-1.7.6-3.2 1.6-4.3-.2-.4-.7-2 .2-4.2 0 0 1.3-.4 4.4 1.6 1.3-.4 2.6-.5 4-.5s2.7.2 4 .5C23.1 6.6 24.4 7 24.4 7c.9 2.2.3 3.8.2 4.2 1 1.1 1.6 2.5 1.6 4.3 0 6.1-3.7 7.5-7.3 7.9.6.5 1.1 1.5 1.1 3v4.4c0 .4.3.9 1.1.8C27.4 29.5 32 23.5 32 16.4c0-8.8-7.2-16-16-16z"></path>
  </symbol>
  <symbol xmlns="http://www.w3.org/2000/svg" viewBox="0 0 32 32" id="social-1_logo-google-plus">
    <path fill="#444" d="M14.7 2.5c.3.2.5.4.9.7.3.3.6.7.9 1.1.3.4.5.9.7 1.5.2.6.3 1.2.3 2 0 1.4-.3 2.5-1 3.4-.3.4-.6.8-1 1.1-.4.3-.8.7-1.2 1-.2.2-.5.5-.7.8-.2.3-.4.7-.4 1.1 0 .4.1.7.4 1 .2.3.4.5.6.7l1.4 1.1c.9.7 1.6 1.4 2.2 2.2.6.8.9 1.9.9 3.2 0 1.9-.9 3.6-2.6 5-1.8 1.5-4.4 2.3-7.8 2.3-2.8 0-4.9-.6-6.3-1.7-1.3-1-2-2.2-2-3.7 0-.7.2-1.5.7-2.4.4-.9 1.3-1.7 2.4-2.3 1.3-.7 2.7-1.2 4.1-1.4 1.4-.2 2.6-.3 3.6-.3-.3-.4-.6-.8-.8-1.2-.3-.4-.4-.9-.4-1.5 0-.3.1-.6.2-.9.1-.2.2-.5.2-.7-.5.1-.9.1-1.3.1-2.2 0-3.8-.7-4.9-2C2.6 11.5 2 10.1 2 8.5c0-1.9.8-3.7 2.5-5.2 1.1-.9 2.3-1.5 3.6-1.8 1.2-.2 2.4-.4 3.5-.4h8.1l-2.5 1.4h-2.5zM16.2 25c0-1-.3-1.9-1-2.6-.7-.7-1.8-1.6-3.3-2.6H11c-.2 0-.7 0-1.6.1-.8.1-1.7.3-2.6.6-.2.1-.5.2-.9.3-.4.2-.8.4-1.1.7-.4.3-.7.7-.9 1.2-.3.5-.4 1.1-.4 1.8 0 1.4.6 2.5 1.9 3.4 1.2.9 2.9 1.3 5 1.4 1.9 0 3.4-.4 4.4-1.2.9-.9 1.4-1.9 1.4-3.1zm-5.6-11.4c1.1 0 2-.4 2.7-1.1.3-.5.6-1 .7-1.5V9.6c0-1.5-.4-3.1-1.2-4.7-.4-.8-.9-1.4-1.5-1.8-.6-.4-1.4-.7-2.2-.7-1.1 0-2 .5-2.7 1.3-.7.9-1 1.8-1 2.9 0 1.4.5 2.9 1.3 4.4.4.7.9 1.3 1.6 1.8.7.5 1.4.8 2.3.8zM32 15h-4v-4h-2v4h-4v2h4v4h2v-4h4v-2z"></path>
  </symbol>
  <symbol xmlns="http://www.w3.org/2000/svg" viewBox="0 0 32 32" id="social-1_logo-instagram">
    <path fill="#444" d="M28.2 0H3.8C1.7 0 0 1.7 0 3.8v24.4C0 30.3 1.7 32 3.8 32h24.4c2.1 0 3.8-1.7 3.8-3.8V3.8C32 1.7 30.3 0 28.2 0zM24 4h3c.6 0 1 .4 1 1v3c0 .6-.4 1-1 1h-3c-.6 0-1-.4-1-1V5c0-.6.4-1 1-1zm-8 5.9c3.4 0 6.2 2.7 6.2 6.1 0 3.4-2.8 6.1-6.2 6.1-3.4 0-6.2-2.7-6.2-6.1.1-3.4 2.8-6.1 6.2-6.1zM28 29H4c-.6 0-1-.4-1-1V13h4c-.5.8-.7 2.1-.7 3 0 5.4 4.4 9.7 9.7 9.7 5.4 0 9.7-4.4 9.7-9.7 0-.9-.1-2.3-.8-3h4v15c.1.6-.3 1-.9 1z"></path>
  </symbol>
  <symbol xmlns="http://www.w3.org/2000/svg" viewBox="0 0 32 32" id="social-1_logo-lastfm">
    <path fill="#444" d="M14.1 22.9l-1.2-3.2s-1.9 2.1-4.8 2.1c-2.5 0-4.3-2.2-4.3-5.7 0-4.5 2.3-6.1 4.5-6.1 3.2 0 4.3 2.1 5.1 4.8l1.2 3.7c1.2 3.6 3.4 6.4 9.7 6.4 4.5 0 7.6-1.4 7.6-5.1 0-3-1.7-4.5-4.8-5.2l-2.3-.5c-1.6-.4-2.1-1-2.1-2.1 0-1.2 1-2 2.6-2 1.8 0 2.7.7 2.9 2.2l3.7-.4c-.3-3.3-2.6-4.7-6.3-4.7-3.3 0-6.5 1.2-6.5 5.2 0 2.5 1.2 4.1 4.3 4.8l2.5.6c1.9.4 2.5 1.2 2.5 2.3 0 1.4-1.3 1.9-3.8 1.9-3.7 0-5.2-1.9-6.1-4.6l-1.2-3.7c-1.5-4.8-4-6.5-8.9-6.5-5.5 0-8.4 3.4-8.4 9.2 0 5.6 2.9 8.6 8 8.6 4.1 0 6.1-2 6.1-2z"></path>
  </symbol>
  <symbol xmlns="http://www.w3.org/2000/svg" viewBox="0 0 32 32" id="social-1_logo-linkedin">
    <path fill="#444" d="M30.7 0H1.3C.6 0 0 .6 0 1.3v29.3c0 .8.6 1.4 1.3 1.4h29.3c.7 0 1.3-.6 1.3-1.3V1.3C32 .6 31.4 0 30.7 0zM9.5 27.3H4.7V12h4.8v15.3zM7.1 9.9c-1.5 0-2.8-1.2-2.8-2.8 0-1.5 1.2-2.8 2.8-2.8 1.5 0 2.8 1.2 2.8 2.8 0 1.6-1.3 2.8-2.8 2.8zm20.2 17.4h-4.7v-7.4c0-1.8 0-4-2.5-4s-2.8 1.9-2.8 3.9v7.6h-4.7V12H17v2.1h.1c.6-1.2 2.2-2.5 4.5-2.5 4.8 0 5.7 3.2 5.7 7.3v8.4z"></path>
  </symbol>
  <symbol xmlns="http://www.w3.org/2000/svg" viewBox="0 0 32 32" id="social-1_logo-myspace">
    <circle fill="#444" cx="26.4" cy="11.3" r="5.1"></circle>
    <circle fill="#444" cx="14.9" cy="12.7" r="4.6"></circle>
    <circle fill="#444" cx="4.5" cy="14.1" r="4.1"></circle>
    <path fill="#444" d="M4.5 19.1c-2.6 0-4.5 2.3-4.5 4.7v1.6c0 .2.2.4.4.4h8.1c.2 0 .4-.2.4-.4v-1.6c.2-2.4-1.8-4.7-4.4-4.7zm10.4-.7c-2.9 0-5 2.6-5 5.2v1.8c0 .3.2.5.5.5h9.2c.3 0 .5-.2.5-.5v-1.8c-.1-2.7-2.3-5.2-5.2-5.2zm11.5-.9c-3.2 0-5.6 2.8-5.6 5.8v2c0 .3.2.5.5.5h10.2c.3 0 .5-.2.5-.5v-2c0-2.9-2.4-5.8-5.6-5.8z"></path>
  </symbol>
  <symbol xmlns="http://www.w3.org/2000/svg" viewBox="0 0 32 32" id="social-1_logo-paypal">
    <path fill="#444" d="M26.9 8.1zm0 0c0-.1 0 0 0 0zm-1.4-5.7C24 .7 21.4 0 17.9 0H8c-.7 0-1.3.5-1.4 1.2L2.5 27.5c-.1.5.3 1 .8 1h6.1l1.5-9.8v.3c.1-.7.7-1.2 1.4-1.2h2.9c5.7 0 10.2-2.3 11.5-9.1 0-.2.1-.6.1-.6.5-2.5.1-4.2-1.3-5.7z"></path>
    <path fill="#444" d="M28.4 9.4c-1.4 6.6-6 10.1-13.2 10.1h-2.6l-2 12.5h4.2c.6 0 1.1-.4 1.2-1.1l.1-.3 1-6.2.1-.3c.1-.6.6-1.1 1.2-1.1h.8c5 0 8.9-2 10.1-7.9.5-2.3.3-4.3-.9-5.7z"></path>
  </symbol>
  <symbol xmlns="http://www.w3.org/2000/svg" viewBox="0 0 32 32" id="social-1_logo-pinterest">
    <path fill="#444" d="M16 0C7.2 0 0 7.2 0 16c0 6.8 4.2 12.6 10.2 14.9-.1-1.3-.3-3.2.1-4.6.3-1.2 1.9-8 1.9-8s-.5-1-.5-2.4c0-2.2 1.3-3.9 2.9-3.9 1.4 0 2 1 2 2.3 0 1.4-.9 3.4-1.3 5.3-.4 1.6.8 2.9 2.4 2.9 2.8 0 5-3 5-7.3 0-3.8-2.8-6.5-6.7-6.5-4.6 0-7.2 3.4-7.2 6.9 0 1.4.5 2.8 1.2 3.7.1.2.1.3.1.5-.1.5-.4 1.6-.4 1.8-.2.3-.4.4-.7.2-2-.9-3.2-3.9-3.2-6.2 0-5 3.7-9.7 10.6-9.7 5.6 0 9.9 4 9.9 9.2 0 5.5-3.5 10-8.3 10-1.6 0-3.1-.8-3.7-1.8 0 0-.8 3.1-1 3.8-.4 1.4-1.3 3.1-2 4.2 1.5.5 3.1.7 4.7.7 8.8 0 16-7.2 16-16S24.8 0 16 0z"></path>
  </symbol>
  <symbol xmlns="http://www.w3.org/2000/svg" viewBox="0 0 32 32" id="social-1_logo-product-hunt">
    <path fill="#444" d="M18.1 11.2h-4.5V16h4.5c1.3 0 2.4-1.1 2.4-2.4 0-1.3-1-2.4-2.4-2.4z"></path>
    <path fill="#444" d="M16 0C7.2 0 0 7.2 0 16s7.2 16 16 16 16-7.2 16-16S24.8 0 16 0zm2.1 19.2h-4.5V24h-3.2V8h7.7c3.1 0 5.6 2.5 5.6 5.6 0 3.1-2.5 5.6-5.6 5.6z"></path>
  </symbol>
  <symbol xmlns="http://www.w3.org/2000/svg" viewBox="0 0 32 32" id="social-1_logo-reddit">
    <path fill="#444" d="M32 15.7c0-2.1-1.7-3.8-3.8-3.8-.9 0-1.8.3-2.4.9-2.3-1.5-5.3-2.4-8.5-2.5L19 5l4.5 1c.1 1.7 1.5 3 3.2 3 1.8 0 3.2-1.4 3.2-3.2 0-1.8-1.4-3.2-3.2-3.2-1.2 0-2.3.7-2.9 1.7L18.5 3c-.4-.1-.9.2-1 .6l-2.1 6.5c-3.4.1-6.7 1-9.2 2.5-.7-.5-1.5-.8-2.4-.8-2.1 0-3.8 1.7-3.8 3.8 0 1.3.7 2.5 1.7 3.2 0 .3-.1.6-.1.9 0 2.7 1.5 5.1 4.3 6.9 2.7 1.8 6.2 2.7 10 2.7s7.3-1 10-2.7c2.8-1.8 4.3-4.3 4.3-6.9 0-.3 0-.6-.1-.8 1.2-.6 1.9-1.8 1.9-3.2zM26.7 4.3c.8 0 1.5.7 1.5 1.5s-.7 1.5-1.5 1.5-1.5-.7-1.5-1.5.7-1.5 1.5-1.5zM9.1 18.1c0-1.2 1-2.2 2.2-2.2 1.2 0 2.2 1 2.2 2.2s-1 2.2-2.2 2.2c-1.2 0-2.2-1-2.2-2.2zm12.2 6.4c-1.1 1.1-2.8 1.7-5.3 1.7-2.4 0-4.1-.5-5.3-1.7-.3-.3-.3-.9 0-1.2.3-.3.9-.3 1.2 0 .8.8 2.1 1.1 4 1.1s3.2-.4 4-1.1c.3-.3.9-.3 1.2 0 .5.3.5.8.2 1.2zm-.5-4.2c-1.2 0-2.2-1-2.2-2.2s1-2.2 2.2-2.2c1.2 0 2.2 1 2.2 2.2s-1 2.2-2.2 2.2z"></path>
  </symbol>
  <symbol xmlns="http://www.w3.org/2000/svg" viewBox="0 0 32 32" id="social-1_logo-rss">
    <circle fill="#444" cx="5.3" cy="25.3" r="4"></circle>
    <path fill="#444" d="M29.3 29.3H24C24 16.8 13.8 6.7 1.3 6.7V1.3c15.5 0 28 12.6 28 28z"></path>
    <path fill="#444" d="M20 29.3h-5.3C14.7 22 8.7 16 1.3 16v-5.3C11.6 10.7 20 19 20 29.3z"></path>
  </symbol>
  <symbol xmlns="http://www.w3.org/2000/svg" viewBox="0 0 32 32" id="social-1_logo-shopify">
    <path fill="#444" d="M26.6 6.2c0-.2-.2-.3-.3-.3-.1 0-2.6-.2-2.6-.2S22 4.1 21.8 3.9c-.2-.2-.6-.1-.7-.1 0 0-.4.1-1 .3-.5-1.6-1.5-3.1-3.3-3.1h-.1c-.5-.7-1.1-1-1.7-1-4.1 0-6.1 5.2-6.7 7.8-1.6.5-2.8.8-2.9.9-.9.3-.9.3-1 1.1-.1.6-2.4 18.8-2.4 18.8L20.2 32l9.9-2.1S26.6 6.4 26.6 6.2zM16.5 5v.2c-1 .3-2.1.6-3.2 1 .6-2.4 1.8-3.5 2.8-3.9.3.6.4 1.5.4 2.7zm-1.6-3.9c.2 0 .4.1.5.2-1.3.6-2.7 2.2-3.3 5.3-.9.3-1.7.5-2.5.8.7-2.4 2.3-6.3 5.3-6.3zm.7 14s-1.1-.6-2.4-.6c-1.9 0-2 1.2-2 1.5 0 1.7 4.3 2.3 4.3 6.2 0 3.1-1.9 5-4.5 5-3.1 0-4.7-1.9-4.7-1.9l.8-2.8s1.6 1.4 3 1.4c.9 0 1.3-.7 1.3-1.2 0-2.2-3.5-2.3-3.5-5.8 0-3 2.1-5.9 6.5-5.9 1.7 0 2.5.5 2.5.5l-1.3 3.6zm2-10.2v-.3c0-1-.1-1.8-.4-2.5.9.1 1.5 1.2 1.9 2.3-.4.2-.9.3-1.5.5z"></path>
  </symbol>
  <symbol xmlns="http://www.w3.org/2000/svg" viewBox="0 0 32 32" id="social-1_logo-skype">
    <path fill="#444" d="M13.3 1.2c-.1 0-.1-.1-.2-.1h-.2l.4.1zm-12.1 12v.2c0 .1.1.1.1.2l-.1-.4zm29.6 5.6v-.2c0-.1-.1-.1-.1-.2l.1.4zM18.5 30.7c.1 0 .1.1.2.1h.2l-.4-.1z"></path>
    <path fill="#444" d="M30.9 18.7v.2l-.1-.3.1.1c.2-.9.3-1.8.3-2.7 0-2-.4-4-1.2-5.9-.8-1.8-1.8-3.4-3.2-4.8-1.4-1.4-3-2.5-4.8-3.2-2-.9-4-1.3-6-1.3-1 0-1.9.1-2.9.3.1 0 .1.1.2.1H13h.2C11.9.5 10.5.2 9 .2 6.6 0 4.3 1 2.6 2.7.9 4.3 0 6.6 0 9c0 1.5.4 3 1.1 4.3v-.2l.1.3s-.1-.1-.1-.2c-.1.9-.2 1.7-.2 2.6 0 2 .4 4 1.2 5.9.8 1.8 1.8 3.4 3.2 4.8 1.4 1.4 3 2.5 4.8 3.2C12 30.6 14 31 16 31c.9 0 1.8-.1 2.6-.2-.1 0-.1-.1-.2-.1l.3.1h-.2c1.3.8 2.9 1.2 4.4 1.2 2.4 0 4.6-.9 6.3-2.6 1.7-1.7 2.6-3.9 2.6-6.3.2-1.6-.2-3.1-.9-4.4zm-14.8 6.5c-5.4 0-7.8-2.6-7.8-4.6 0-1 .7-1.7 1.8-1.7 2.3 0 1.7 3.3 6 3.3 2.2 0 3.4-1.2 3.4-2.4 0-.7-.4-1.5-1.8-1.9l-4.8-1.2c-3.8-1-4.5-3-4.5-5 0-4.1 3.8-5.6 7.4-5.6 3.3 0 7.2 1.8 7.2 4.3 0 1-.9 1.6-1.9 1.6-2 0-1.6-2.7-5.5-2.7-2 0-3 .9-3 2.2 0 1.3 1.5 1.7 2.9 2l3.5.8c3.9.9 4.9 3.1 4.9 5.3-.2 3.1-2.7 5.6-7.8 5.6z"></path>
  </symbol>
  <symbol xmlns="http://www.w3.org/2000/svg" viewBox="0 0 32 32" id="social-1_logo-slack">
    <path fill="#444" d="M14.517 18.817l-1.365-4.077 4.267-1.43 1.365 4.078z"></path>
    <path fill="#444" d="M14.517 18.817l-1.365-4.077 4.267-1.43 1.365 4.078z"></path>
    <path fill="#444" d="M30.7 11.6C27.4.6 22.6-2 11.6 1.3.6 4.6-2 9.4 1.3 20.4c3.3 11 8.1 13.6 19.1 10.3 11-3.3 13.6-8.1 10.3-19.1zm-5.6 7.1l-2.1.7.7 2.1c.3.9-.2 1.8-1 2.1-.2.1-.4.1-.6.1-.7 0-1.3-.5-1.5-1.1l-.7-2.1-4.3 1.4.7 2.1c.3.9-.2 1.8-1 2.1-.2.1-.4.1-.6.1-.7 0-1.3-.5-1.5-1.1l-.7-2.1-2.1.7c-.2.1-.4.1-.6.1-.7 0-1.3-.5-1.5-1.1-.3-.9.2-1.8 1-2.1l2.1-.7-1.4-4.2-2 .7c-.2.1-.4.1-.6.1-.7 0-1.3-.5-1.5-1.1-.3-.9.2-1.8 1-2.1l2.1-.7-.7-2.1c-.3-.9.1-1.9 1-2.2.9-.3 1.8.2 2.1 1l.7 2.1 4.3-1.4-.7-2.1c-.3-.9.2-1.8 1-2.1.9-.3 1.8.2 2.1 1l.7 2.2 2.1-.7c.9-.3 1.8.2 2.1 1 .3.9-.2 1.8-1 2.1l-2.1.7 1.4 4.1 2.1-.7c.9-.3 1.8.2 2.1 1 .2 1-.2 1.9-1.1 2.2z"></path>
  </symbol>
  <symbol xmlns="http://www.w3.org/2000/svg" viewBox="0 0 32 32" id="social-1_logo-soundcloud">
    <path fill="#444" d="M.6 16.4c0-.1-.1-.1-.1-.1-.1 0-.1.1-.1.1l-.3 3 .3 2.9c0 .1.1.1.1.1.1 0 .1-.1.1-.1l.4-2.9-.4-3zm5.1-2.7c-.1 0-.2.1-.3.2l-.3 5.5.3 3.5c0 .1.1.2.3.2.1 0 .2-.1.3-.2l.3-3.5-.3-5.5c0-.1-.1-.2-.3-.2zm-2.6 1.9c-.1 0-.2.1-.2.2l-.3 3.6.3 3.5c0 .1.1.2.2.2s.2-.1.2-.2l.3-3.5-.3-3.6c0-.2-.1-.2-.2-.2zm5.3 7.6c.2 0 .3-.1.3-.3l.3-3.5-.3-7.3c0-.2-.1-.3-.3-.3-.2 0-.3.1-.3.3l-.2 7.3.2 3.5c0 .1.2.3.3.3zm5.6 0c.2 0 .4-.2.4-.4l.2-3.4-.2-8.4c0-.2-.2-.4-.4-.4s-.4.2-.4.4l-.2 8.4.2 3.4c-.1.2.1.4.4.4zm-2.8 0c.2 0 .4-.2.4-.4l.2-3.4-.3-7.4c0-.2-.2-.4-.4-.4s-.4.2-.4.4l-.2 7.3.2 3.4c.1.3.3.5.5.5zM27.9 15c-.6 0-1.1.1-1.6.3-.3-3.7-3.4-6.6-7.2-6.6-.9 0-1.8.2-2.6.5-.3.1-.4.2-.4.5v12.9c0 .2.2.5.4.5h11.3c2.3 0 4.1-1.8 4.1-4.1s-1.7-4-4-4z"></path>
  </symbol>
  <symbol xmlns="http://www.w3.org/2000/svg" viewBox="0 0 32 32" id="social-1_logo-spotify">
    <path fill="#444" d="M16 0C7.2 0 0 7.2 0 16s7.2 16 16 16 16-7.2 16-16S24.9 0 16 0zm7.4 23.1c-.3.5-.9.6-1.4.3-3.8-2.3-8.5-2.8-14.1-1.5-.6.2-1-.2-1.2-.7-.2-.6.2-1 .7-1.2 6.1-1.4 11.4-.8 15.5 1.8.6.2.7.8.5 1.3zm1.9-4.4c-.4.6-1.1.8-1.7.4-4.3-2.6-10.9-3.4-15.9-1.8-.6.2-1.4-.2-1.5-.8-.2-.7.1-1.4.8-1.5 5.8-1.8 13-.9 18 2.2.4.2.7 1 .3 1.5zm.1-4.5c-5.1-3-13.7-3.4-18.6-1.8-.8.2-1.6-.2-1.8-1-.2-.8.2-1.6 1-1.8 5.7-1.7 15-1.4 21 2.2.7.4 1 1.4.6 2.1-.5.5-1.4.7-2.2.3z"></path>
  </symbol>
  <symbol xmlns="http://www.w3.org/2000/svg" viewBox="0 0 32 32" id="social-1_logo-trello">
    <path fill-rule="evenodd" clip-rule="evenodd" fill="#444" d="M4 0C1.8 0 0 1.8 0 4v24c0 2.2 1.8 4 4 4h24c2.2 0 4-1.8 4-4V4c0-2.2-1.8-4-4-4H4zm14 6v10c0 1.1.9 2 2 2h6c1.1 0 2-.9 2-2V6c0-1.1-.9-2-2-2h-6c-1.1 0-2 .9-2 2zM4 6v18c0 1.1.9 2 2 2h6c1.1 0 2-.9 2-2V6c0-1.1-.9-2-2-2H6c-1.1 0-2 .9-2 2z"></path>
  </symbol>
  <symbol xmlns="http://www.w3.org/2000/svg" viewBox="0 0 32 32" id="social-1_logo-tumblr">
    <path fill="#444" d="M23.7 25.6c-.6.3-1.7.5-2.6.6-2.6 0-3.1-1.9-3.1-3.2V13h6.4V8.2H18V0h-4.7c-.1 0-.2.1-.2.2-.3 2.5-1.4 6.9-6.3 8.6V13H10v10.5c0 3.6 2.6 8.7 9.6 8.5 2.4 0 5-1 5.5-1.9l-1.4-4.5z"></path>
  </symbol>
  <symbol xmlns="http://www.w3.org/2000/svg" viewBox="0 0 32 32" id="social-1_logo-twitter">
    <path fill="#444" d="M32 6.1c-1.2.5-2.4.9-3.8 1 1.4-.8 2.4-2.1 2.9-3.6-1.3.8-2.7 1.3-4.2 1.6C25.7 3.8 24 3 22.2 3c-3.6 0-6.6 2.9-6.6 6.6 0 .5.1 1 .2 1.5-5.5-.3-10.3-2.9-13.6-6.9-.6 1-.9 2.1-.9 3.3 0 2.3 1.2 4.3 2.9 5.5-1.1 0-2.1-.3-3-.8v.1c0 3.2 2.3 5.8 5.3 6.4-.6.1-1.1.2-1.7.2-.4 0-.8 0-1.2-.1.8 2.6 3.3 4.5 6.1 4.6-2.2 1.8-5.1 2.8-8.2 2.8-.5 0-1.1 0-1.6-.1 3 1.8 6.5 2.9 10.2 2.9 12.1 0 18.7-10 18.7-18.7v-.8c1.2-1 2.3-2.1 3.2-3.4z"></path>
  </symbol>
  <symbol xmlns="http://www.w3.org/2000/svg" viewBox="0 0 32 32" id="social-1_logo-vimeo">
    <path fill="#444" d="M32 8.6c-.1 3.1-2.3 7.4-6.5 12.8-4.4 5.7-8 8.5-11 8.5-1.9 0-3.4-1.7-4.7-5.2-.9-3.2-1.7-6.3-2.6-9.5-1-3.4-2-5.2-3.1-5.2-.2 0-1.1.5-2.5 1.5L0 9.6c1.6-1.4 3.1-2.8 4.7-4.2 2.1-1.8 3.7-2.8 4.7-2.9 2.5-.2 4 1.5 4.6 5.1.6 3.9 1.1 6.4 1.3 7.3.7 3.3 1.5 4.9 2.4 4.9.7 0 1.7-1.1 3-3.2s2.1-3.7 2.2-4.8c.2-1.8-.5-2.7-2.2-2.7-.8 0-1.6.2-2.4.5 1.6-5.2 4.6-7.7 9-7.5 3.3.2 4.9 2.3 4.7 6.5z"></path>
  </symbol>
  <symbol xmlns="http://www.w3.org/2000/svg" viewBox="0 0 32 32" id="social-1_logo-vine">
    <path fill="#444" d="M30 15.9c-.8.2-1.6.3-2.3.3-4 0-7.1-2.8-7.1-7.7 0-2.4.9-3.7 2.2-3.7 1.3 0 2.1 1.1 2.1 3.4 0 1.3-.3 2.7-.6 3.6 0 0 1.2 2.2 4.6 1.5.7-1.6 1.1-3.7 1.1-5.5C30 2.9 27.5 0 22.9 0c-4.7 0-7.5 3.6-7.5 8.4 0 4.7 2.2 8.8 5.9 10.6-1.5 3.1-3.5 5.8-5.5 7.8-3.7-4.5-7-10.4-8.4-22H2c2.5 19.3 10 25.5 12 26.7 1.1.7 2.1.6 3.1.1 1.6-.9 6.4-5.7 9.1-11.4 1.1 0 2.5-.1 3.8-.4v-3.9z"></path>
  </symbol>
  <symbol xmlns="http://www.w3.org/2000/svg" viewBox="0 0 32 32" id="social-1_logo-whatsapp">
    <path fill="#444" d="M.1 32l2.3-8.2C1 21.4.3 18.7.3 15.9.2 7.1 7.3 0 16.1 0c4.2 0 8.2 1.7 11.2 4.7s4.6 7 4.6 11.2c0 8.7-7.1 15.9-15.9 15.9-2.7 0-5.3-.7-7.6-1.9L.1 32zm8.8-5.1l.5.3c2 1.2 4.3 1.8 6.7 1.8 7.3 0 13.2-5.9 13.2-13.2 0-3.5-1.4-6.8-3.9-9.3s-5.8-3.9-9.3-3.9c-7.3.1-13.2 6-13.2 13.3 0 2.5.7 4.9 2 7l.3.5-1.3 4.9 5-1.4z"></path>
    <path fill-rule="evenodd" clip-rule="evenodd" fill="#444" d="M12.1 9.2c-.3-.8-.6-.7-.9-.7h-.8c-.3 0-.7.1-1.1.5C9 9.4 8 10.4 8 12.3c0 2 1.4 3.8 1.6 4.1.2.3 2.8 4.3 6.8 6 .9.4 1.7.7 2.3.8.9.3 1.8.3 2.5.2.8-.1 2.3-1 2.7-1.9.3-.9.3-1.7.2-1.9-.1-.2-.4-.3-.8-.5-.4-.1-2.3-1.1-2.7-1.2-.4-.1-.6-.2-.9.2-.3.4-1 1.3-1.3 1.6-.2.3-.5.3-.9.1-.4-.2-1.7-.6-3.2-2-1.2-1.1-2-2.3-2.2-2.7-.2-.4 0-.6.2-.8.2-.2.4-.5.6-.7.2-.2.3-.4.4-.7.1-.3.1-.5 0-.7-.1-.2-.9-2.2-1.2-3z"></path>
  </symbol>
  <symbol xmlns="http://www.w3.org/2000/svg" viewBox="0 0 32 32" id="social-1_logo-wordpress">
    <path fill="#444" d="M0 16c0 6.3 3.7 11.8 9 14.4L1.4 9.5C.5 11.5 0 13.7 0 16zm26.8-.8c0-2-.7-3.3-1.3-4.4-.8-1.3-1.6-2.4-1.6-3.8 0-1.5 1.1-2.8 2.7-2.8h.2C24 1.6 20.2 0 16 0 10.4 0 5.5 2.9 2.6 7.2h1c1.7 0 4.3-.2 4.3-.2.9 0 1 1.2.1 1.3l-1.8.2L12 25.8l3.5-10.5L13 8.5c-.9-.1-1.7-.2-1.7-.2-.8 0-.7-1.3.2-1.3 0 0 2.6.2 4.2.2C17.4 7.2 20 7 20 7c.9-.1 1 1.2.1 1.3l-1.8.2L24 25.7l1.6-5.3c.7-2.2 1.2-3.8 1.2-5.2z"></path>
    <path fill="#444" d="M16.3 17.4l-4.8 13.9c1.4.4 2.9.7 4.5.7 1.9 0 3.7-.3 5.3-.9 0-.1-.1-.1-.1-.2l-4.9-13.5zM30 8.3c.1.5.1 1.1.1 1.6 0 1.6-.3 3.4-1.2 5.7L24 29.8c4.8-2.8 8-7.9 8-13.8 0-2.8-.7-5.4-2-7.7z"></path>
  </symbol>
  <symbol xmlns="http://www.w3.org/2000/svg" viewBox="0 0 32 32" id="social-1_logo-yelp">
    <path fill="#444" d="M4.7 15.4c-.5.8-.7 3.5-.5 5.2.1.6.2 1.1.3 1.3.2.4.5.6.9.6.2 0 .4 0 5.1-1.6l2.1-.7c.5-.1.9-.6.9-1.3 0-.6-.3-1.2-.8-1.4l-1.5-.6c-5-2.1-5.3-2.2-5.5-2.2-.4.1-.8.3-1 .7zM16 31.3c.1-.2.1-.4.1-5.5v-2.3c0-.5-.3-1-.9-1.3-.6-.2-1.2-.1-1.6.4l-1 1.3c-3.5 4.2-3.7 4.4-3.8 4.7-.1.1-.1.3-.1.5s.1.4.3.7c.8 1 4.8 2.5 6 2.3.5-.2.8-.5 1-.8zm8-1.8c1.2-.5 3.8-3.8 4-5.1.1-.5-.1-.8-.4-1.1-.2-.2-.4-.2-5-1.8l-2.1-.7c-.5-.2-1.1 0-1.4.5-.4.5-.5 1.1-.1 1.6l.8 1.4c2.8 4.6 3 5 3.2 5.1.1.2.5.3 1 .1zm-2.5-11.9c5.3-1.3 5.5-1.4 5.7-1.5.3-.2.5-.6.5-1-.1-1.3-2.4-4.8-3.6-5.4-.4-.2-.8-.2-1.1 0-.2.1-.4.3-3.2 4.3l-1.3 1.8c-.3.4-.3 1 0 1.5s.9.8 1.5.6c.2 0 .7-.1 1.5-.3zm-5.3-4.5c-.1-2.2-.7-11.8-.8-12.2-.1-.4-.4-.7-.9-.8C13.1-.3 7.9 1.2 7 2.2c-.3.3-.4.8-.4 1.1.2.3 6.6 10.7 6.6 10.7 1 1.6 1.7 1.3 2 1.3.3-.1 1.1-.4 1-2.2z"></path>
  </symbol>
  <symbol xmlns="http://www.w3.org/2000/svg" viewBox="0 0 32 32" id="social-1_logo-youtube">
    <path fill="#444" d="M31.7 9.6s-.3-2.2-1.3-3.2c-1.2-1.3-2.6-1.3-3.2-1.4-4.5-.3-11.2-.3-11.2-.3s-6.7 0-11.2.3c-.6.1-2 .1-3.2 1.4C.6 7.4.3 9.6.3 9.6S0 12.2 0 14.8v2.4c0 2.6.3 5.2.3 5.2s.3 2.2 1.3 3.2c1.2 1.3 2.8 1.2 3.5 1.4 2.6.2 10.9.3 10.9.3s6.7 0 11.2-.3c.6-.1 2-.1 3.2-1.4 1-1 1.3-3.2 1.3-3.2s.3-2.6.3-5.2v-2.4c0-2.6-.3-5.2-.3-5.2zm-19 10.6v-9l8.6 4.5-8.6 4.5z"></path>
  </symbol>
  <symbol xmlns="http://www.w3.org/2000/svg" viewBox="0 0 32 32" id="social-1_round-behance">
    <path fill="#444" d="M13.2 16.4h-2.9v2.7H13c.4 0 1.2-.1 1.2-1.3 0-1.4-1-1.4-1-1.4zm7.4-1.5c-1.5 0-1.7 1.5-1.7 1.5h3.3c-.1 0-.1-1.5-1.6-1.5zm-6.7-1.2c0-1-.7-1-.7-1h-2.9v2.2H13c.5 0 .9-.1.9-1.2z"></path>
    <path fill="#444" d="M16 0C7.2 0 0 7.2 0 16s7.2 16 16 16 16-7.2 16-16S24.8 0 16 0zm2.4 11.5h4.1v1.2h-4.1v-1.2zm-2.1 6.4c0 3-3.2 2.9-3.2 2.9H8v-9.9h5.2c1.6 0 2.8.9 2.8 2.6s-1.5 1.9-1.5 1.9c2 .1 1.8 2.5 1.8 2.5zm7.7-.1h-5.1c0 1.8 1.7 1.7 1.7 1.7 1.6 0 1.6-1.1 1.6-1.1h1.7c0 2.8-3.4 2.6-3.4 2.6-4.1 0-3.8-3.8-3.8-3.8s0-3.8 3.8-3.8c4 .1 3.5 4.4 3.5 4.4z"></path>
  </symbol>
  <symbol xmlns="http://www.w3.org/2000/svg" viewBox="0 0 32 32" id="social-1_round-deviantart">
    <path fill="#444" d="M16 0C7.2 0 0 7.2 0 16s7.2 16 16 16 16-7.2 16-16S24.8 0 16 0zm5 10.9l-3 5.7.2.2H21v4h-5l-.3.2-1.4 2.6-.3.4h-3v-3l2.9-5.6-.2-.2H11v-4h5l.3-.2 1.4-2.6.4-.4H21v2.9z"></path>
  </symbol>
  <symbol xmlns="http://www.w3.org/2000/svg" viewBox="0 0 32 32" id="social-1_round-dribbble">
    <path fill="#444" d="M15.6 13.8c-1.1-2-2.4-3.7-2.5-4-1.9.9-3.3 2.7-3.8 4.8.3 0 3.1 0 6.3-.8zm.9 2.3c.1 0 .2-.1.3-.1l-.6-1.2c-3.4 1-6.7 1-7 1v.2c0 1.8.7 3.4 1.8 4.6.1-.3 2-3.4 5.5-4.5zm4-5.2c-1.2-1.1-2.8-1.7-4.5-1.7-.6 0-1.1.1-1.6.2.2.3 1.4 1.9 2.5 4 2.5-.9 3.5-2.3 3.6-2.5zm-3.3 6.2c-3.9 1.3-5.2 4-5.4 4.3 1.2.9 2.6 1.4 4.2 1.4.9 0 1.8-.2 2.7-.5-.1-.6-.5-2.7-1.5-5.2z"></path>
    <path fill="#444" d="M16 0C7.2 0 0 7.2 0 16s7.2 16 16 16 16-7.2 16-16S24.8 0 16 0zm0 24c-4.4 0-8-3.6-8-8s3.6-8 8-8 8 3.6 8 8-3.6 8-8 8z"></path>
    <path fill="#444" d="M17.5 14.4c.2.3.3.7.5 1 .1.1.1.2.1.4 2.3-.3 4.5.2 4.8.2 0-1.6-.6-3.1-1.5-4.3-.3.2-1.4 1.7-3.9 2.7zm1 2.4c.9 2.5 1.3 4.5 1.3 4.9 1.5-1 2.6-2.7 2.9-4.6-.2-.1-2.1-.6-4.2-.3z"></path>
  </symbol>
  <symbol xmlns="http://www.w3.org/2000/svg" viewBox="0 0 32 32" id="social-1_round-dropbox">
    <path fill="#444" d="M16 0C7.2 0 0 7.2 0 16s7.2 16 16 16 16-7.2 16-16S24.8 0 16 0zm4.7 20.6L16 23.4l-4.7-2.8v-1l1.4.9 3.3-2.7 3.3 2.7 1.4-.9v1zm3.3-3.8l-4.7 3.1-3.3-2.7-3.3 2.7L8 16.8l3.3-2.6L8 11.6l4.7-3.1 3.3 2.7 3.3-2.7 4.7 3.1-3.3 2.6 3.3 2.6z"></path>
    <path fill="#444" d="M11.3 14.2l4.7 3 4.7-3-4.7-2.9z"></path>
  </symbol>
  <symbol xmlns="http://www.w3.org/2000/svg" viewBox="0 0 32 32" id="social-1_round-evernote">
    <path fill="#444" d="M19.5 14.6c-.6 0-.8.5-.9 1h.6c.4 0 .8.1 1.1.2.1-.5 0-1.1-.8-1.2z"></path>
    <path fill="#444" d="M16 0C7.2 0 0 7.2 0 16s7.2 16 16 16 16-7.2 16-16S24.8 0 16 0zM9.6 11.3l2.9-2.9-.1.1c-.1.2-.2.5-.2.8v1.6c0 .1-.1.2-.2.2h-1.5c-.4 0-.7.1-.9.2.1 0 0 0 0 0zm13.1 6.3c-.2 2.3-.6 3.6-.7 4.1-.7 2.2-1.3 2.3-3.1 2.3-2.2 0-2.9-.3-2.9-2.1 0-2 .9-2 2.5-2 .2 0 0 .2 0 .6 0 .4.1.5-.1.5-.5 0-1.1-.1-1.1.6 0 .8.4.7 1.3.7 1.2 0 1.4-.1 1.4-1.2 0-1.8-.5-2.1-1.2-2.1-.8-.1-1.5-.2-1.9-.3-.9-.3-.9-1.6-.9-1.9 0-.1-.1 0-.1 0 0 .5 0 1.2-.3 1.9-.1.2-.1.4-.1.4-.3.6-.8.4-1.6.3-.8-.1-2.4-.4-3.2-.8-.3-.2-.4-.3-.6-.6-.4-.9-.9-3.8-.9-4.2-.1-.5-.1-.8-.1-.8 0-.3 0-.7.2-.9.1-.1.2-.3.4-.3.2-.1.4-.1.8-.1H12c.3 0 .6-.3.6-.6V9.4c0-.3.1-.5.2-.7.2-.3.5-.4.8-.5.4-.1 1.8-.2 2.7.2.3.1.7.5.7 1 .5 0 1.4 0 2.2.1.9.1 1.7.2 2.1.4.3.1.7.4.8 1.1.4.9.7 5.2.6 6.6z"></path>
  </symbol>
  <symbol xmlns="http://www.w3.org/2000/svg" viewBox="0 0 32 32" id="social-1_round-facebook">
    <path fill="#444" d="M16 0C7.2 0 0 7.2 0 16s7.2 16 16 16 16-7.2 16-16S24.8 0 16 0zm4.2 10.7h-1.5c-1.2 0-1.4.6-1.4 1.4v1.8h2.8l-.4 2.8h-2.4V24h-2.9v-7.3h-2.5v-2.8h2.5v-2.1C14.3 9.3 15.8 8 18 8c1 0 1.9.1 2.2.1v2.6z"></path>
  </symbol>
  <symbol xmlns="http://www.w3.org/2000/svg" viewBox="0 0 32 32" id="social-1_round-github">
    <path fill="#444" d="M16 0C7.2 0 0 7.2 0 16s7.2 16 16 16 16-7.2 16-16S24.8 0 16 0zm2.3 22.4s-1.1.1-2.3.1-2.3-.1-2.3-.1C10.9 22.1 8 21 8 16.2c0-1.4.5-2.5 1.3-3.4-.1-.3-.6-1.6.1-3.3 0 0 1.1-.3 3.4 1.3 1-.3 2.1-.4 3.1-.4 1.1 0 2.1.1 3.1.4 2.4-1.6 3.4-1.3 3.4-1.3.7 1.7.3 3 .1 3.3.8.9 1.3 2 1.3 3.4.2 4.8-2.7 5.9-5.5 6.2z"></path>
  </symbol>
  <symbol xmlns="http://www.w3.org/2000/svg" viewBox="0 0 32 32" id="social-1_round-google-plus">
    <path fill="#444" d="M13.6 9.6c-.3-.2-.7-.3-1.1-.4-.5 0-1 .2-1.4.6-.3.4-.5.9-.4 1.4 0 .7.2 1.4.6 2.2.2.4.5.7.8.9.3.2.7.4 1.1.4.5 0 1-.2 1.3-.6.2-.2.3-.5.3-.8v-.7c0-.8-.2-1.5-.6-2.3 0-.2-.3-.5-.6-.7zm-.1 8.3h-.8c-.4.1-.8.1-1.3.3-.1 0-.2.1-.4.2s-.4.2-.6.4c-.2.2-.3.4-.5.6-.1.2-.2.5-.2.9 0 .7.3 1.3 1 1.7.6.4 1.4.7 2.5.7 1 0 1.7-.2 2.2-.6.5-.4.7-.9.7-1.5 0-.5-.2-.9-.5-1.3-.4-.3-.9-.8-1.7-1.3-.1-.1-.2-.1-.4-.1z"></path>
    <path fill="#444" d="M16 0C7.2 0 0 7.2 0 16s7.2 16 16 16 16-7.2 16-16S24.8 0 16 0zm-.2 9.6c.2.2.3.3.4.6.1.2.3.5.4.7.1.3.1.6.1 1 0 .7-.2 1.3-.5 1.7-.2.2-.3.4-.5.6-.2.2-.4.3-.6.5-.1.1-.2.3-.3.4-.1.2-.2.3-.2.6 0 .2.1.4.2.5l.3.3.7.5c.4.3.8.7 1.1 1.1.3.4.5 1 .5 1.6 0 .9-.4 1.8-1.3 2.5-.9.8-2.2 1.1-3.9 1.2-1.4 0-2.5-.3-3.2-.9-.6-.5-1-1.1-1-1.9 0-.4.1-.8.3-1.2.3-.4.7-.8 1.3-1.1.7-.4 1.3-.6 2.1-.7.7-.1 1.3-.2 1.8-.2-.1-.2-.3-.4-.4-.6-.1-.2-.2-.4-.2-.7 0-.2 0-.3.1-.4 0-.1.1-.2.1-.3h-.6c-1.1 0-1.9-.3-2.5-1-.7-.7-1-1.4-1-2.1 0-1 .4-1.8 1.3-2.6.6-.5 1.2-.8 1.8-.9.6-.1 1.2-.2 1.7-.2h4l-1.2.7h-1.2c.1.1.2.2.4.3zm8.2 7h-2.3v2.3h-1.1v-2.3h-2.3v-1.1h2.3v-2.3h1.1v2.3H24v1.1z"></path>
  </symbol>
  <symbol xmlns="http://www.w3.org/2000/svg" viewBox="0 0 32 32" id="social-1_round-instagram">
    <circle fill="#444" cx="16" cy="16" r="3.1"></circle>
    <path fill="#444" d="M19.6 12.9h2.2c.2 0 .4-.2.4-.4v-2.2c0-.2-.2-.4-.4-.4h-2.2c-.2 0-.4.2-.4.4v2.2c-.1.2.1.4.4.4z"></path>
    <path fill="#444" d="M16 0C7.2 0 0 7.2 0 16s7.2 16 16 16 16-7.2 16-16S24.8 0 16 0zm8 22.1c0 1-.9 1.9-1.9 1.9H9.9c-1 0-1.9-.8-1.9-1.9V9.9C8 8.8 8.9 8 9.9 8h12.2c1 0 1.9.8 1.9 1.9v12.2z"></path>
    <path fill="#444" d="M20.9 16c0 2.7-2.2 4.9-4.9 4.9s-4.9-2.2-4.9-4.9c0-.4.1-.9.2-1.3H9.8v7c0 .2.2.4.4.4h11.5c.2 0 .4-.2.4-.4v-7h-1.5c.2.4.3.9.3 1.3z"></path>
  </symbol>
  <symbol xmlns="http://www.w3.org/2000/svg" viewBox="0 0 32 32" id="social-1_round-linkedin">
    <path fill="#444" d="M16 0C7.2 0 0 7.2 0 16s7.2 16 16 16 16-7.2 16-16S24.8 0 16 0zm-4.4 24H8.3V13.3h3.3V24zM9.9 11.9c-1 0-1.9-.9-1.9-2C8 8.9 8.9 8 9.9 8c1.1 0 1.9.9 1.9 1.9 0 1.1-.8 2-1.9 2zM24 24h-3.3v-5.2c0-1.2 0-2.8-1.7-2.8s-2 1.3-2 2.7V24h-3.3V13.3h3.2v1.5c.4-.8 1.5-1.7 3.1-1.7 3.4 0 4 2.2 4 5.1V24z"></path>
  </symbol>
  <symbol xmlns="http://www.w3.org/2000/svg" viewBox="0 0 32 32" id="social-1_round-pinterest">
    <path fill="#444" d="M16 0C7.2 0 0 7.2 0 16s7.2 16 16 16 16-7.2 16-16S24.8 0 16 0zm1.2 19.6c-1 0-1.9-.5-2.2-1.1 0 0-.5 2.1-.6 2.5-.4 1.4-1.6 2.9-1.7 3-.1.1-.2.1-.2-.1s-.3-2 0-3.5c.2-.7 1.2-5 1.2-5s-.3-.6-.3-1.5c0-1.4.8-2.4 1.8-2.4.8 0 1.2.6 1.2 1.4 0 .8-.5 2.1-.8 3.3-.2 1 .5 1.8 1.5 1.8 1.7 0 2.9-2.2 2.9-4.9 0-2-1.4-3.5-3.8-3.5-2.8 0-4.5 2.1-4.5 4.4 0 .8.2 1.4.6 1.8.2.2.2.3.1.5 0 .2-.1.6-.2.7-.1.2-.2.3-.5.2-1.3-.5-1.9-1.9-1.9-3.5C9.8 11.1 12 8 16.4 8c3.5 0 5.8 2.5 5.8 5.3 0 3.6-2 6.3-5 6.3z"></path>
  </symbol>
  <symbol xmlns="http://www.w3.org/2000/svg" viewBox="0 0 32 32" id="social-1_round-product-hunt">
    <path fill="#444" d="M17.1 11.2h-4.5V16h4.5c1.3 0 2.4-1.1 2.4-2.4 0-1.3-1.1-2.4-2.4-2.4z"></path>
    <path fill="#444" d="M16 0C7.2 0 0 7.2 0 16s7.2 16 16 16 16-7.2 16-16S24.8 0 16 0zm1.1 19.2h-4.5V24H9.3V8H17c3.1 0 5.6 2.5 5.6 5.6s-2.4 5.6-5.5 5.6z"></path>
  </symbol>
  <symbol xmlns="http://www.w3.org/2000/svg" viewBox="0 0 32 32" id="social-1_round-skype">
    <path fill="#444" d="M17.4 15.1l-1.8-.4c-.7-.2-1.4-.4-1.4-1s.5-1.1 1.5-1.1c2 0 1.8 1.4 2.8 1.4.5 0 1-.3 1-.8 0-1.2-1.9-2.1-3.6-2.1-1.8 0-3.7.8-3.7 2.8 0 1 .3 2 2.3 2.5l2.4.6c.7.2.9.6.9 1 0 .6-.6 1.2-1.7 1.2-2.1 0-1.8-1.6-3-1.6-.5 0-.9.4-.9.9 0 1 1.2 2.3 3.9 2.3 2.6 0 3.8-1.2 3.8-2.9 0-1.3-.5-2.4-2.5-2.8z"></path>
    <path fill="#444" d="M16 0C7.2 0 0 7.2 0 16s7.2 16 16 16 16-7.2 16-16S24.8 0 16 0zm6.7 22.7c-.8.8-2 1.3-3.2 1.3-.8 0-1.5-.2-2.2-.6-.4.1-.9.1-1.3.1-1 0-2-.2-2.9-.6-.9-.4-1.7-.9-2.4-1.6-.7-.7-1.3-1.5-1.7-2.4-.4-.9-.6-1.9-.6-2.9 0-.4 0-.9.1-1.3-.3-.7-.5-1.4-.5-2.2 0-1.2.5-2.3 1.3-3.2.8-.8 2-1.3 3.2-1.3.7 0 1.5.2 2.1.5.5-.1 1-.1 1.4-.1 1 0 2 .2 2.9.6.9.4 1.7.9 2.4 1.6.7.7 1.2 1.5 1.6 2.4.4.9.6 1.9.6 2.9 0 .5 0 .9-.1 1.4.4.7.6 1.4.6 2.2 0 1.2-.5 2.3-1.3 3.2z"></path>
  </symbol>
  <symbol xmlns="http://www.w3.org/2000/svg" viewBox="0 0 32 32" id="social-1_round-slack">
    <path fill="#444" d="M14.832 18.184l-1.08-3.224 3.32-1.112 1.08 3.224z"></path>
    <path fill="#444" d="M16 0C7.2 0 0 7.2 0 16s7.2 16 16 16 16-7.2 16-16S24.8 0 16 0zm7.1 18.1l-1.6.5.6 1.7c.2.7-.1 1.4-.8 1.6-.1 0-.3.1-.4.1-.5 0-1-.4-1.2-.9l-.7-1.6-3.3 1.1.6 1.7c.2.7-.1 1.4-.8 1.6-.2.1-.4.1-.5.1-.5 0-1-.4-1.2-.9l-.6-1.7-1.6.6c-.1 0-.3.1-.4.1-.5 0-1-.4-1.2-.9-.2-.7.1-1.4.8-1.6l1.6-.5-1.1-3.2-1.6.5c-.1 0-.3.1-.4.1-.5 0-1-.4-1.2-.9-.2-.7.1-1.4.8-1.6l1.6-.5-.5-1.9c-.2-.7.1-1.4.8-1.6.7-.2 1.4.1 1.6.8l.6 1.7 3.3-1.1-.6-1.7c-.2-.7.1-1.4.8-1.6.7-.2 1.4.1 1.6.8l.6 1.7 1.6-.5c.7-.2 1.4.1 1.6.8.2.7-.1 1.4-.8 1.6l-1.5.5 1.1 3.2 1.6-.5c.7-.2 1.4.1 1.6.8.2.7-.1 1.4-.8 1.6z"></path>
  </symbol>
  <symbol xmlns="http://www.w3.org/2000/svg" viewBox="0 0 32 32" id="social-1_round-spotify">
    <path fill="#444" d="M19.5 18.9c-2.1-1.3-4.7-1.6-7.8-.9-.2.1-.4.3-.4.6.1.2.3.4.6.4 2.8-.6 5.2-.4 7 .8.2.2.5.1.7-.2.2-.3.2-.6-.1-.7zm1-2.3c-2.5-1.5-6.1-2-9-1.1-.3.1-.5.4-.4.8.1.3.4.5.8.4 2.5-.8 5.8-.4 8 .9.3.2.6.1.8-.2.1-.3 0-.7-.2-.8z"></path>
    <path fill="#444" d="M16 0C7.2 0 0 7.2 0 16s7.2 16 16 16 16-7.2 16-16S24.8 0 16 0zm0 24c-4.4 0-8-3.6-8-8s3.6-8 8-8 8 3.6 8 8-3.6 8-8 8z"></path>
    <path fill="#444" d="M11 12.8c-.4.1-.6.5-.5.9.1.4.5.6.9.5 2.4-.8 6.7-.6 9.3.9.4.2.8.1 1-.2.2-.4.1-.8-.3-1-2.9-1.8-7.6-1.9-10.4-1.1z"></path>
  </symbol>
  <symbol xmlns="http://www.w3.org/2000/svg" viewBox="0 0 32 32" id="social-1_round-tumblr">
    <path fill="#444" d="M16 0C7.2 0 0 7.2 0 16s7.2 16 16 16 16-7.2 16-16S24.8 0 16 0zm1.8 24c-3.5.1-4.8-2.5-4.8-4.3v-5.2h-1.6v-2.1c2.4-.9 3-3.1 3.1-4.3.1-.1.1-.1.2-.1H17v4.1h3.2v2.4H17v5c0 .7.3 1.6 1.5 1.6.4 0 1-.1 1.3-.3l.8 2.3c-.3.4-1.6.9-2.8.9z"></path>
  </symbol>
  <symbol xmlns="http://www.w3.org/2000/svg" viewBox="0 0 32 32" id="social-1_round-twitter">
    <path fill="#444" d="M16 0C7.2 0 0 7.2 0 16s7.2 16 16 16 16-7.2 16-16S24.8 0 16 0zm6.4 12.7v.4c0 4.3-3.3 9.3-9.3 9.3-1.9 0-3.6-.5-5-1.5h.8c1.5 0 3-.5 4.1-1.4-1.4 0-2.6-1-3.1-2.3.2 0 .4.1.6.1.3 0 .6 0 .9-.1-1.5-.3-2.6-1.6-2.6-3.2.4.2.9.4 1.5.4-.9-.6-1.5-1.6-1.5-2.7 0-.6.2-1.2.4-1.7 1.6 2 4 3.3 6.8 3.4-.1-.2-.1-.5-.1-.7 0-1.8 1.5-3.3 3.3-3.3.9 0 1.8.4 2.4 1 .7-.1 1.5-.4 2.1-.8-.2.8-.8 1.4-1.4 1.8.7-.1 1.3-.3 1.9-.5-.6.8-1.2 1.4-1.8 1.8z"></path>
  </symbol>
  <symbol xmlns="http://www.w3.org/2000/svg" viewBox="0 0 32 32" id="social-1_round-vimeo">
    <path fill="#444" d="M16 0C7.2 0 0 7.2 0 16s7.2 16 16 16 16-7.2 16-16S24.8 0 16 0zm4.7 18.7c-2.2 2.8-4 4.2-5.5 4.2-.9 0-1.7-.9-2.4-2.6-.4-1.6-.9-3.2-1.3-4.7-.5-1.7-1-2.6-1.5-2.6-.1 0-.5.3-1.3.8l-.8-1c.8-.7 1.6-1.4 2.3-2.1 1.1-.9 1.8-1.4 2.4-1.4 1.2-.1 2 .7 2.3 2.6.3 2 .5 3.2.6 3.7.4 1.6.8 2.4 1.2 2.4.3 0 .8-.5 1.5-1.6s1-1.9 1.1-2.4c.1-.9-.3-1.4-1.1-1.4-.4 0-.8.1-1.2.3.8-2.6 2.3-3.8 4.5-3.8 1.6 0 2.4 1.1 2.3 3.2.1 1.5-1 3.7-3.1 6.4z"></path>
  </symbol>
  <symbol xmlns="http://www.w3.org/2000/svg" viewBox="0 0 32 32" id="social-1_round-wordpress">
    <path fill="#444" d="M16 0C7.2 0 0 7.2 0 16s7.2 16 16 16 16-7.2 16-16S24.8 0 16 0zm0 24c-4.4 0-8-3.6-8-8s3.6-8 8-8 8 3.6 8 8-3.6 8-8 8z"></path>
    <path fill="#444" d="M20.9 15.6c0-.9-.3-1.5-.6-2-.4-.6-.7-1.1-.7-1.7 0-.7.5-1.3 1.2-1.3h.1c-1.3-1.2-3-1.9-4.9-1.9-2.5 0-4.7 1.3-6 3.2h.5c.8 0 1.9-.1 1.9-.1.4 0 .4.5 0 .6 0 0-.4 0-.8.1l2.6 7.8 1.6-4.7-1.1-3.1c-.4 0-.8-.1-.8-.1-.4 0-.3-.6 0-.6 0 0 1.2.1 1.9.1.8 0 1.9-.1 1.9-.1.4 0 .4.5 0 .6 0 0-.4 0-.8.1l2.6 7.7.7-2.4c.4-.8.7-1.5.7-2.2zM8.8 16c0 2.8 1.7 5.3 4.1 6.5l-3.4-9.4C9 14 8.8 15 8.8 16z"></path>
    <path fill="#444" d="M16.1 16.6L14 22.9c.6.2 1.3.3 2 .3.8 0 1.6-.1 2.4-.4 0 0 0-.1-.1-.1l-2.2-6.1zm3.5 5.6c2.1-1.2 3.6-3.6 3.6-6.2 0-1.3-.3-2.4-.9-3.5v.7c0 .7-.1 1.6-.5 2.6l-2.2 6.4z"></path>
  </symbol>
  <symbol xmlns="http://www.w3.org/2000/svg" viewBox="0 0 32 32" id="social-1_round-youtube">
    <path fill="#444" d="M16 0C7.2 0 0 7.2 0 16s7.2 16 16 16 16-7.2 16-16S24.8 0 16 0zm8 16.6c0 1.3-.2 2.6-.2 2.6s-.2 1.1-.6 1.6c-.6.6-1.3.6-1.6.7-2.2.2-5.6.2-5.6.2s-4.2 0-5.4-.2c-.4-.1-1.2 0-1.8-.7-.5-.5-.6-1.6-.6-1.6S8 17.9 8 16.6v-1.2c0-1.3.2-2.6.2-2.6s.2-1.1.6-1.6c.6-.6 1.3-.6 1.6-.7 2.2-.2 5.6-.2 5.6-.2s3.4 0 5.6.2c.3 0 1 0 1.6.7.5.5.6 1.6.6 1.6s.2 1.3.2 2.6v1.2z"></path>
    <path fill="#444" d="M14.3 18.1l4.4-2.3-4.4-2.2z"></path>
  </symbol>
  <symbol xmlns="http://www.w3.org/2000/svg" viewBox="0 0 32 32" id="social-1_square-500px">
    <path fill="#444" d="M20.2 14.2c-.3 0-.6.1-.8.2-.3.1-.5.3-.8.5-.2.2-.5.4-.7.6l-.6.6.6.6c.2.2.5.4.7.6.2.2.5.3.8.4.3.1.6.2.9.2.5 0 1-.2 1.2-.5.3-.3.4-.8.4-1.3s-.2-.9-.5-1.3c-.2-.5-.7-.6-1.2-.6zm-6.8.6c-.2-.2-.5-.3-.8-.5-.3-.1-.5-.2-.8-.2-.5 0-1 .2-1.3.5-.3.4-.5.8-.5 1.3s.1.9.4 1.3c.3.3.7.5 1.2.5.3 0 .6-.1.9-.2.3-.1.5-.2.8-.4.2-.2.5-.4.7-.6l.6-.6-.6-.6c-.1-.1-.3-.3-.6-.5z"></path>
    <path fill="#444" d="M0 0v32h32V0H0zm23.7 17.5c-.2.5-.4.9-.7 1.3-.3.4-.7.7-1.2.9-.5.2-1 .3-1.6.3-.5 0-.9-.1-1.3-.2s-.8-.3-1.1-.5c-.3-.2-.7-.5-1-.8l-.9-.9-.9.9c-.3.3-.6.6-1 .8-.3.2-.7.4-1.1.5-.4.1-.8.2-1.3.2-.6 0-1.1-.1-1.6-.3-.5-.2-.9-.5-1.2-.9-.3-.4-.6-.8-.7-1.3 0-.5-.1-1-.1-1.6 0-.6.1-1.1.3-1.6.2-.5.4-.9.7-1.3.3-.4.7-.6 1.2-.8.5-.2 1-.3 1.6-.3.5 0 .9.1 1.3.2s.8.3 1.1.6c.3.2.7.5 1 .8.3.3.6.6.9 1 .3-.3.6-.7.9-1 .3-.3.6-.6 1-.8.3-.2.7-.4 1.1-.6.4-.1.8-.2 1.3-.2.6 0 1.1.1 1.6.3.5.2.9.5 1.2.8.3.4.6.8.7 1.3.2.5.3 1 .3 1.6-.2.6-.3 1.1-.5 1.6z"></path>
  </symbol>
  <symbol xmlns="http://www.w3.org/2000/svg" viewBox="0 0 32 32" id="social-1_square-behance">
    <path fill="#444" d="M13.2 16.4h-2.9v2.7H13c.4 0 1.2-.1 1.2-1.3 0-1.4-1-1.4-1-1.4zm.7-2.7c0-1-.7-1-.7-1h-2.9v2.2H13c.5 0 .9-.1.9-1.2zm6.7 1.2c-1.5 0-1.7 1.5-1.7 1.5h3.3c-.1 0-.1-1.5-1.6-1.5z"></path>
    <path fill="#444" d="M0 0v32h32V0H0zm18.4 11.5h4.1v1.2h-4.1v-1.2zm-2.1 6.4c0 3-3.2 2.9-3.2 2.9H8v-9.9h5.2c1.6 0 2.8.9 2.8 2.6s-1.5 1.9-1.5 1.9c2 .1 1.8 2.5 1.8 2.5zm7.7-.1h-5.1c0 1.8 1.7 1.7 1.7 1.7 1.6 0 1.6-1.1 1.6-1.1h1.7c0 2.8-3.4 2.6-3.4 2.6-4.1 0-3.8-3.8-3.8-3.8s0-3.8 3.8-3.8c4 .1 3.5 4.4 3.5 4.4z"></path>
  </symbol>
  <symbol xmlns="http://www.w3.org/2000/svg" viewBox="0 0 32 32" id="social-1_square-blogger">
    <path fill="#444" d="M18.8 17.9h-5.7c-.5 0-1 .4-1 1 0 .5.4 1 1 1h5.7c.5 0 1-.4 1-1s-.4-1-1-1zm-5.7-3.8h2.8c.5 0 1-.4 1-1 0-.5-.4-1-1-1h-2.8c-.5 0-1 .4-1 1 .1.5.5 1 1 1z"></path>
    <path fill="#444" d="M0 0v32h32V0H0zm23.9 19c0 2.8-2.3 5-5.1 5H13c-2.7 0-5-2.3-5-5v-5.9C8 10.3 10.3 8 13.1 8h3.5c1.5 0 3.2 1.3 3.9 2.8.2.4.3.7.5 1.7.1.6.1 1.1.4 1.4.4.4 1.8.2 2.2.3.4.2.4.7.4.7l-.1 4.1z"></path>
  </symbol>
  <symbol xmlns="http://www.w3.org/2000/svg" viewBox="0 0 32 32" id="social-1_square-buffer">
    <path fill="#444" d="M0 0v32h32V0H0zm23.6 20.6l-7.3 3.3c-.2.1-.5.1-.7 0l-7.3-3.3c-.2-.1-.2-.4 0-.5l1.5-.7c.2-.1.5-.1.7 0l5.1 2.3c.2.1.5.1.7 0l5.1-2.3c.2-.1.5-.1.7 0l1.5.7c.2.1.2.4 0 .5zm0-4.3l-7.3 3.3c-.2.1-.5.1-.7 0l-7.3-3.3c-.2-.1-.2-.4 0-.5l1.5-.7c.2-.1.5-.1.7 0l5.1 2.3c.2.1.5.1.7 0l5.1-2.3c.2-.1.5-.1.7 0l1.5.7c.2.1.2.4 0 .5zm0-4.3l-7.3 3.3c-.2.1-.5.1-.7 0L8.4 12c-.2-.1-.2-.4 0-.5l7.2-3.4c.3-.1.5-.1.8 0l7.2 3.4c.2.1.2.4 0 .5z"></path>
  </symbol>
  <symbol xmlns="http://www.w3.org/2000/svg" viewBox="0 0 32 32" id="social-1_square-buysellads">
    <path fill="#444" d="M0 0v32h32V0H0zm19.6 23.5L16 10.9l-2.3 7.9h4.5l-5.6 4.7H8l4.7-15h6.5l4.7 15h-4.3z"></path>
  </symbol>
  <symbol xmlns="http://www.w3.org/2000/svg" viewBox="0 0 32 32" id="social-1_square-codepen">
    <path fill="#444" d="M16 14.4L13.6 16l2.4 1.6 2.4-1.6zm-6.6.4v2.4l1.7-1.2zm.5 3.6l5.4 3.6v-3.2l-3-2zm12.2-4.8L16.7 10v3.2l3 2zm-6.8-.4V10l-5.4 3.6 2.4 1.6zm1.4 5.6V22l5.4-3.6-2.4-1.6z"></path>
    <path fill="#444" d="M0 0v32h32V0H0zm24 18.4c0 .1 0 .1 0 0v.3l-7.3 4.9c-.4.4-.6.4-.7.4-.1 0-.3 0-.4-.1L8.3 19v-5.5l7.3-4.9c.2-.2.5-.2.8 0l7.3 4.9v4.9z"></path>
    <path fill="#444" d="M22.6 17.2v-2.4L20.9 16z"></path>
  </symbol>
  <symbol xmlns="http://www.w3.org/2000/svg" viewBox="0 0 32 32" id="social-1_square-creative-market">
    <path fill="#444" d="M17.6 15.7l2.1-1-.8-1.3-1.8 1.2c-.1.1-.2.1-.3 0-.1 0-.1-.1-.1-.2l.1-2.2h-1.5l.2 2.2c0 .1 0 .2-.1.2h-.3l-1.9-1.2-.7 1.3 2 1c.1 0 .1.1.1.2s-.1.2-.1.2l-2.1 1 .8 1.3 1.8-1.2c.1-.1.2-.1.3 0 .1 0 .1.1.1.2l-.1 2.2h1.5l-.2-2.2c0-.1 0-.2.1-.2h.2l1.9 1.2.7-1.3-2-1c-.1 0-.1-.1-.1-.2.1 0 .2-.1.2-.2z"></path>
    <path fill="#444" d="M0 0v32h32V0H0zm22.9 16.8l-6.7 6.7c-.2.2-1.2 1.1-2.7-.3l-4.7-4.7c-1.4-1.4-.6-2.4-.3-2.7.3-.2 6.2-6.2 6.7-6.7C16.3 8 16.9 8 17.8 8c.6 0 4.2.3 4.2.3.6 0 1 .2 1.2.5.3.3.5.7.5 1.2 0 0 .3 3.6.3 4.3 0 .8 0 1.4-1.1 2.5z"></path>
    <circle fill="#444" cx="21.1" cy="11" r="1"></circle>
  </symbol>
  <symbol xmlns="http://www.w3.org/2000/svg" viewBox="0 0 32 32" id="social-1_square-deviantart">
    <path fill="#444" d="M0 0v32h32V0H0zm21 10.9l-3 5.7.2.2H21v4h-5l-.3.2-1.4 2.6-.3.4h-3v-3l2.9-5.6-.2-.2H11v-4h5l.3-.2 1.4-2.6.4-.4H21v2.9z"></path>
  </symbol>
  <symbol xmlns="http://www.w3.org/2000/svg" viewBox="0 0 32 32" id="social-1_square-dribbble">
    <path fill="#444" d="M16.5 16.1c.1 0 .2-.1.3-.1l-.6-1.2c-3.4 1-6.7 1-7 1v.2c0 1.8.7 3.4 1.8 4.6.1-.3 2-3.4 5.5-4.5zm4-5.2c-1.2-1.1-2.8-1.7-4.5-1.7-.6 0-1.1.1-1.6.2.2.3 1.4 1.9 2.5 4 2.5-.9 3.5-2.3 3.6-2.5zm-4.9 2.9c-1.1-2-2.4-3.7-2.5-4-1.9.9-3.3 2.7-3.8 4.8.3 0 3.1 0 6.3-.8zm1.6 3.3c-3.9 1.3-5.2 4-5.4 4.3 1.2.9 2.6 1.4 4.2 1.4.9 0 1.8-.2 2.7-.5-.1-.6-.5-2.7-1.5-5.2z"></path>
    <path fill="#444" d="M0 0v32h32V0H0zm16 24c-4.4 0-8-3.6-8-8s3.6-8 8-8 8 3.6 8 8-3.6 8-8 8z"></path>
    <path fill="#444" d="M17.5 14.4c.2.3.3.7.5 1 .1.1.1.2.1.4 2.3-.3 4.5.2 4.8.2 0-1.6-.6-3.1-1.5-4.3-.3.2-1.4 1.7-3.9 2.7zm1 2.4c.9 2.5 1.3 4.5 1.3 4.9 1.5-1 2.6-2.7 2.9-4.6-.2-.1-2.1-.6-4.2-.3z"></path>
  </symbol>
  <symbol xmlns="http://www.w3.org/2000/svg" viewBox="0 0 32 32" id="social-1_square-dropbox">
    <path fill="#444" d="M11.3 14.2l4.7 3 4.7-3-4.7-2.9z"></path>
    <path fill="#444" d="M0 0v32h32V0H0zm20.7 20.6L16 23.4l-4.7-2.8v-1l1.4.9 3.3-2.7 3.3 2.7 1.4-.9v1zm3.3-3.8l-4.7 3.1-3.3-2.7-3.3 2.7L8 16.8l3.3-2.6L8 11.6l4.7-3.1 3.3 2.7 3.3-2.7 4.7 3.1-3.3 2.6 3.3 2.6z"></path>
  </symbol>
  <symbol xmlns="http://www.w3.org/2000/svg" viewBox="0 0 32 32" id="social-1_square-envato">
    <path fill="#444" d="M0 0v32h32V0H0zm22.1 20.2c-2 4.4-7.1 4.4-9.7 2.9-2.2-1.3-5.6-5.5-1.8-10.6.2-.2.5-.2.5.4-.1.4-.6 3.4.4 4.7.5.6.6.2.6.2s-.1-4.3 3.3-7.6c2.1-2 5.1-2.3 5.7-2 .6.2 3.5 6.5 1 12z"></path>
  </symbol>
  <symbol xmlns="http://www.w3.org/2000/svg" viewBox="0 0 32 32" id="social-1_square-evernote">
    <path fill="#444" d="M19.5 14.6c-.6 0-.8.5-.9 1h.6c.4 0 .8.1 1.1.2.1-.5 0-1.1-.8-1.2z"></path>
    <path fill="#444" d="M0 0v32h32V0H0zm9.6 11.3l2.9-2.9-.1.1c-.1.2-.2.5-.2.8v1.6c0 .1-.1.2-.2.2h-1.5c-.4 0-.7.1-.9.2.1 0 0 0 0 0zm13.1 6.3c-.2 2.3-.6 3.6-.7 4.1-.7 2.2-1.3 2.3-3.1 2.3-2.2 0-2.9-.3-2.9-2.1 0-2 .9-2 2.5-2 .2 0 0 .2 0 .6 0 .4.1.5-.1.5-.5 0-1.1-.1-1.1.6 0 .8.4.7 1.3.7 1.2 0 1.4-.1 1.4-1.2 0-1.8-.5-2.1-1.2-2.1-.8-.1-1.5-.2-1.9-.3-.9-.3-.9-1.6-.9-1.9 0-.1-.1 0-.1 0 0 .5 0 1.2-.3 1.9-.1.2-.1.4-.1.4-.3.6-.8.4-1.6.3-.8-.1-2.4-.4-3.2-.8-.3-.2-.4-.3-.6-.6-.4-.9-.9-3.8-.9-4.2-.1-.5-.1-.8-.1-.8 0-.3 0-.7.2-.9.1-.1.2-.3.4-.3.2-.1.4-.1.8-.1H12c.3 0 .6-.3.6-.6V9.4c0-.3.1-.5.2-.7.2-.3.5-.4.8-.5.4-.1 1.8-.2 2.7.2.3.1.7.5.7 1 .5 0 1.4 0 2.2.1.9.1 1.7.2 2.1.4.3.1.7.4.8 1.1.4.9.7 5.2.6 6.6z"></path>
  </symbol>
  <symbol xmlns="http://www.w3.org/2000/svg" viewBox="0 0 32 32" id="social-1_square-facebook">
    <path fill="#444" d="M0 0v32h32V0H0zm20.2 10.7h-1.5c-1.2 0-1.4.6-1.4 1.4v1.8h2.8l-.4 2.8h-2.4V24h-2.9v-7.3h-2.5v-2.8h2.5v-2.1C14.3 9.3 15.8 8 18 8c1 0 1.9.1 2.2.1v2.6z"></path>
  </symbol>
  <symbol xmlns="http://www.w3.org/2000/svg" viewBox="0 0 32 32" id="social-1_square-feedly">
    <path fill="#444" d="M16.2 19.7c-.1-.1-.3-.2-.4-.1l-.9.9c-.2.2 0 .4.2.5.2.2.3.4.6.5h.7c.3-.2.5-.4.7-.7.1-.1.1-.3 0-.4-.3-.2-.6-.5-.9-.7zm.9-6.6c-.2-.3-.5-.5-.8-.8-.1-.1-.3-.3-.4-.2-.2.2-.4.3-.5.5l-4.1 4.1c-.1.1-.3.3-.1.4.2.3.5.5.7.7.3 0 .7.1.9-.1l4.2-4.2c.1-.1.2-.3.1-.4zm-.8 2.9c-.1-.1-.2-.3-.4-.2-.2.1-.3.3-.4.4l-2.3 2.3c-.1.1-.3.3-.1.4.2.2.4.5.7.7.3 0 .7.1.9-.2l2.3-2.3c.1-.1.2-.2.1-.4-.2-.2-.5-.4-.8-.7z"></path>
    <path fill="#444" d="M0 0v32h32V0H0zm23.7 17.9c-.2.3-.4.5-.6.7l-3.9 3.9c-.4.4-.9.6-1.5.5h-3.6c-.5 0-.9-.2-1.2-.5l-4.4-4.4c-.4-.4-.6-1.1-.5-1.7.1-.3.3-.6.5-.9l6.2-6.2.9-.3c.4-.1.8-.1 1.1.1.4.2.6.5.9.7l5.5 5.5c.3.3.7.6.8 1 .2.5.1 1.2-.2 1.6z"></path>
  </symbol>
  <symbol xmlns="http://www.w3.org/2000/svg" viewBox="0 0 32 32" id="social-1_square-flickr">
    <path fill="#444" d="M0 0v32h32V0H0zm11.6 19.6C9.6 19.6 8 18 8 16s1.6-3.6 3.6-3.6 3.6 1.6 3.6 3.6c-.1 2-1.7 3.6-3.6 3.6zm8.8 0c-2 0-3.6-1.6-3.6-3.6s1.6-3.6 3.6-3.6S24 14 24 16s-1.6 3.6-3.6 3.6z"></path>
  </symbol>
  <symbol xmlns="http://www.w3.org/2000/svg" viewBox="0 0 32 32" id="social-1_square-github">
    <path fill="#444" d="M0 0v32h32V0H0zm18.3 22.4s-1.1.1-2.3.1-2.3-.1-2.3-.1C10.9 22.1 8 21 8 16.2c0-1.4.5-2.5 1.3-3.4-.1-.3-.6-1.6.1-3.3 0 0 1.1-.3 3.4 1.3 1-.3 2.1-.4 3.1-.4 1.1 0 2.1.1 3.1.4 2.4-1.6 3.4-1.3 3.4-1.3.7 1.7.3 3 .1 3.3.8.9 1.3 2 1.3 3.4.2 4.8-2.7 5.9-5.5 6.2z"></path>
  </symbol>
  <symbol xmlns="http://www.w3.org/2000/svg" viewBox="0 0 32 32" id="social-1_square-google-plus">
    <path fill="#444" d="M13.6 9.6c-.3-.2-.7-.3-1.1-.4-.5 0-1 .2-1.4.6-.3.4-.5.9-.4 1.4 0 .7.2 1.4.6 2.2.2.4.5.7.8.9.3.2.7.4 1.1.4.5 0 1-.2 1.3-.6.2-.2.3-.5.3-.8v-.7c0-.8-.2-1.5-.6-2.3 0-.2-.3-.5-.6-.7zm-.1 8.3h-.8c-.4.1-.8.1-1.3.3-.1 0-.2.1-.4.2s-.4.2-.6.4c-.2.2-.3.4-.5.6-.1.2-.2.5-.2.9 0 .7.3 1.3 1 1.7.6.4 1.4.7 2.5.7 1 0 1.7-.2 2.2-.6.5-.4.7-.9.7-1.5 0-.5-.2-.9-.5-1.3-.4-.3-.9-.8-1.7-1.3-.1-.1-.2-.1-.4-.1z"></path>
    <path fill="#444" d="M0 0v32h32V0H0zm15.8 9.6c.2.2.3.3.4.6.1.2.3.5.4.7.1.3.1.6.1 1 0 .7-.2 1.3-.5 1.7-.2.2-.3.4-.5.6-.2.2-.4.3-.6.5-.1.1-.2.3-.3.4-.1.2-.2.3-.2.6 0 .2.1.4.2.5l.3.3.7.5c.4.3.8.7 1.1 1.1.3.4.5 1 .5 1.6 0 .9-.4 1.8-1.3 2.5-.9.8-2.2 1.1-3.9 1.2-1.4 0-2.5-.3-3.2-.9-.6-.5-1-1.1-1-1.9 0-.4.1-.8.3-1.2.3-.4.7-.8 1.3-1.1.7-.4 1.3-.6 2.1-.7.7-.1 1.3-.2 1.8-.2-.1-.2-.3-.4-.4-.6-.1-.2-.2-.4-.2-.7 0-.2 0-.3.1-.4 0-.1.1-.2.1-.3h-.6c-1.1 0-1.9-.3-2.5-1-.7-.7-1-1.4-1-2.1 0-1 .4-1.8 1.3-2.6.6-.5 1.2-.8 1.8-.9.6-.1 1.2-.2 1.7-.2h4l-1.2.7h-1.2c.1.1.2.2.4.3zm8.2 7h-2.3v2.3h-1.1v-2.3h-2.3v-1.1h2.3v-2.3h1.1v2.3H24v1.1z"></path>
  </symbol>
  <symbol xmlns="http://www.w3.org/2000/svg" viewBox="0 0 32 32" id="social-1_square-instagram">
    <path fill="#444" d="M20.9 16c0 2.7-2.2 4.9-4.9 4.9s-4.9-2.2-4.9-4.9c0-.4.1-.9.2-1.3H9.8v7c0 .2.2.4.4.4h11.5c.2 0 .4-.2.4-.4v-7h-1.5c.2.4.3.9.3 1.3zm-1.3-3.1h2.2c.2 0 .4-.2.4-.4v-2.2c0-.2-.2-.4-.4-.4h-2.2c-.2 0-.4.2-.4.4v2.2c-.1.2.1.4.4.4z"></path>
    <circle fill="#444" cx="16" cy="16" r="3.1"></circle>
    <path fill="#444" d="M0 0v32h32V0H0zm24 22.1c0 1-.9 1.9-1.9 1.9H9.9c-1 0-1.9-.8-1.9-1.9V9.9C8 8.8 8.9 8 9.9 8h12.2c1 0 1.9.8 1.9 1.9v12.2z"></path>
  </symbol>
  <symbol xmlns="http://www.w3.org/2000/svg" viewBox="0 0 32 32" id="social-1_square-lastfm">
    <path fill="#444" d="M0 0v32h32V0H0zm20.2 20.4c-3.2 0-4.3-1.4-4.9-3.2l-.6-1.8c-.4-1.3-1-2.4-2.6-2.4-1.1 0-2.3.8-2.3 3.1 0 1.8.9 2.9 2.2 2.9 1.4 0 2.4-1.1 2.4-1.1l.6 1.6s-1 1-3.1 1c-2.6 0-4-1.5-4-4.3 0-2.9 1.4-4.6 4.1-4.6 2.4 0 3.7.9 4.4 3.3l.6 1.8c.4 1.3 1.2 2.3 3.1 2.3 1.2 0 1.9-.3 1.9-1 0-.5-.3-.9-1.2-1.1l-1.2-.3c-1.5-.4-2.1-1.2-2.1-2.4 0-2 1.6-2.6 3.3-2.6 1.9 0 3 .7 3.2 2.3l-1.8.2c-.2-.8-.7-1.1-1.5-1.1s-1.3.4-1.3 1c0 .5.2.9 1 1.1l1.2.3c1.6.4 2.4 1.1 2.4 2.6 0 1.7-1.5 2.4-3.8 2.4z"></path>
  </symbol>
  <symbol xmlns="http://www.w3.org/2000/svg" viewBox="0 0 32 32" id="social-1_square-linkedin">
    <path fill="#444" d="M0 0v32h32V0H0zm11.6 24H8.3V13.3h3.3V24zM9.9 11.9c-1 0-1.9-.9-1.9-2C8 8.9 8.9 8 9.9 8c1.1 0 1.9.9 1.9 1.9 0 1.1-.8 2-1.9 2zM24 24h-3.3v-5.2c0-1.2 0-2.8-1.7-2.8s-2 1.3-2 2.7V24h-3.3V13.3h3.2v1.5c.4-.8 1.5-1.7 3.1-1.7 3.4 0 4 2.2 4 5.1V24z"></path>
  </symbol>
  <symbol xmlns="http://www.w3.org/2000/svg" viewBox="0 0 32 32" id="social-1_square-myspace">
    <path fill="#444" d="M0 0v32h32V0H0zm21.2 11.1c1.4 0 2.5 1.1 2.5 2.5s-1.1 2.5-2.5 2.5-2.5-1.1-2.5-2.5c0-1.3 1.1-2.5 2.5-2.5zm-5.7 1c1.3 0 2.3 1 2.3 2.3 0 1.3-1 2.3-2.3 2.3-1.3 0-2.3-1-2.3-2.3 0-1.3 1-2.3 2.3-2.3zm-5.2.9c1.1 0 2.1.9 2.1 2.1 0 1.1-.9 2.1-2.1 2.1-1.1 0-2.1-.9-2.1-2.1 0-1.2.9-2.1 2.1-2.1zm2.2 7.7c0 .1-.1.2-.2.2H8.2c-.1 0-.2-.1-.2-.2v-.8c0-1.2 1-2.3 2.3-2.3 1.3 0 2.3 1.1 2.3 2.3v.8zm5.5 0c0 .1-.1.2-.2.2h-4.6c-.1 0-.2-.1-.2-.2v-.9c0-1.3 1.1-2.6 2.5-2.6s2.5 1.3 2.5 2.6v.9zm6-.1c0 .1-.1.3-.3.3h-5.1c-.1 0-.3-.1-.3-.3v-1c0-1.5 1.2-2.9 2.8-2.9 1.6 0 2.8 1.4 2.8 2.9v1z"></path>
  </symbol>
  <symbol xmlns="http://www.w3.org/2000/svg" viewBox="0 0 32 32" id="social-1_square-paypal">
    <path fill="#444" d="M0 0v32h32V0H0zm9.6 22.2c-.3 0-.5-.2-.4-.5l2.1-13.1c.1-.3.3-.6.7-.6h5c1.7 0 3.1.4 3.8 1.2.7.8.9 1.6.7 2.9 0 0 0 .2-.1.3-.7 3.4-2.9 4.5-5.8 4.5h-1.5c-.4 0-.6.3-.7.6v-.2l-.8 4.9h-3zm13.1-6.6c-.6 2.9-2.5 4-5 4h-.4c-.3 0-.6.2-.6.5v.2l-.5 3.1v.1c0 .3-.3.5-.6.5h-2.1l1-6.2h1.3c3.6 0 5.9-1.8 6.6-5.1.4.7.5 1.7.3 2.9z"></path>
  </symbol>
  <symbol xmlns="http://www.w3.org/2000/svg" viewBox="0 0 32 32" id="social-1_square-pinterest">
    <path fill="#444" d="M0 0v32h32V0H0zm17.2 19.6c-1 0-1.9-.5-2.2-1.1 0 0-.5 2.1-.6 2.5-.4 1.4-1.6 2.9-1.7 3-.1.1-.2.1-.2-.1s-.3-2 0-3.5c.2-.7 1.2-5 1.2-5s-.3-.6-.3-1.5c0-1.4.8-2.4 1.8-2.4.8 0 1.2.6 1.2 1.4 0 .8-.5 2.1-.8 3.3-.2 1 .5 1.8 1.5 1.8 1.7 0 2.9-2.2 2.9-4.9 0-2-1.4-3.5-3.8-3.5-2.8 0-4.5 2.1-4.5 4.4 0 .8.2 1.4.6 1.8.2.2.2.3.1.5 0 .2-.1.6-.2.7-.1.2-.2.3-.5.2-1.3-.5-1.9-1.9-1.9-3.5C9.8 11.1 12 8 16.4 8c3.5 0 5.8 2.5 5.8 5.3 0 3.6-2 6.3-5 6.3z"></path>
  </symbol>
  <symbol xmlns="http://www.w3.org/2000/svg" viewBox="0 0 32 32" id="social-1_square-product-hunt">
    <path fill="#444" d="M17.1 11.2h-4.5V16h4.5c1.3 0 2.4-1.1 2.4-2.4 0-1.3-1.1-2.4-2.4-2.4z"></path>
    <path fill="#444" d="M0 0v32h32V0H0zm17.1 19.2h-4.5V24H9.3V8H17c3.1 0 5.6 2.5 5.6 5.6s-2.4 5.6-5.5 5.6z"></path>
  </symbol>
  <symbol xmlns="http://www.w3.org/2000/svg" viewBox="0 0 32 32" id="social-1_square-reddit">
    <path fill="#444" d="M18 19.6c-.4.4-1 .6-2 .6s-1.6-.2-2-.6c-.2-.2-.4-.2-.6 0-.2.2-.2.4 0 .6.6.6 1.4.8 2.6.8 1.2 0 2.1-.3 2.6-.8.2-.2.2-.4 0-.6-.1-.2-.4-.2-.6 0zM14.7 17c0-.6-.5-1.1-1.1-1.1-.6 0-1.1.5-1.1 1.1 0 .6.5 1.1 1.1 1.1.6 0 1.1-.5 1.1-1.1z"></path>
    <path fill="#444" d="M0 0v32h32V0H0zm23.1 17.5v.4c0 1.3-.8 2.6-2.2 3.5-1.3.9-3.1 1.4-5 1.4s-3.7-.5-5-1.4c-1.4-.9-2.2-2.1-2.2-3.5v-.5c-.4-.3-.7-.9-.7-1.5 0-1.1.9-1.9 1.9-1.9.4 0 .9.2 1.2.4 1.3-.8 2.9-1.2 4.6-1.3l1-3.3c.1-.2.3-.3.5-.3l2.7.6c.3-.5.8-.9 1.4-.9.9 0 1.6.7 1.6 1.6 0 .9-.7 1.6-1.6 1.6-.8 0-1.5-.7-1.6-1.5l-2.3-.5-.8 2.6c1.6.1 3.1.5 4.3 1.3.3-.3.8-.4 1.2-.4 1.1 0 1.9.9 1.9 1.9 0 .7-.4 1.3-.9 1.7z"></path>
    <path fill="#444" d="M18.4 15.9c-.6 0-1.1.5-1.1 1.1s.5 1.1 1.1 1.1 1.1-.5 1.1-1.1-.5-1.1-1.1-1.1z"></path>
  </symbol>
  <symbol xmlns="http://www.w3.org/2000/svg" viewBox="0 0 32 32" id="social-1_square-rss">
    <path fill="#444" d="M0 0v32h32V0H0zm10.3 24C9 24 8 23 8 21.7s1-2.3 2.3-2.3 2.3 1 2.3 2.3-1 2.3-2.3 2.3zm5.8 0c0-4.5-3.6-8.1-8.1-8.1v-2.5c5.8 0 10.6 4.7 10.6 10.6h-2.5zm5.4 0c0-7.5-6.1-13.5-13.5-13.5V8c8.8 0 16 7.2 16 16h-2.5z"></path>
  </symbol>
  <symbol xmlns="http://www.w3.org/2000/svg" viewBox="0 0 32 32" id="social-1_square-shopify">
    <path fill="#444" d="M14.7 11.1c.5-.2 1.1-.3 1.6-.5v-.1c0-.6-.1-1.1-.2-1.4-.5.2-1.1.8-1.4 2zm-2.8 5.3c0 1.8 1.8 1.8 1.8 2.9 0 .3-.2.6-.6.6-.7 0-1.5-.7-1.5-.7l-.4 1.4s.8 1 2.4 1c1.3 0 2.3-1 2.3-2.5 0-1.9-2.2-2.3-2.2-3.1 0-.2 0-.8 1-.8.7 0 1.2.3 1.2.3l.6-1.8s-.4-.2-1.2-.2c-2.3 0-3.4 1.4-3.4 2.9zm3.8-7.8c-.1-.1-.2-.1-.3-.1-1.5 0-2.3 1.9-2.7 3.1.4-.1.8-.3 1.3-.4.3-1.5 1.1-2.2 1.7-2.6z"></path>
    <path fill="#444" d="M0 0v32h32V0H0zm18.1 24L9 22.3s1.2-9.1 1.2-9.4c.1-.4.1-.4.5-.6.1 0 .6-.2 1.4-.4.3-1.3 1.3-3.9 3.4-3.9.3 0 .6.1.8.5h.1c.9 0 1.4.8 1.7 1.6.3-.1.5-.1.5-.1h.3l.9.9s1.2.1 1.3.1c.1 0 .1 0 .1.1s1.7 11.8 1.7 11.8L18.1 24z"></path>
    <path fill="#444" d="M16.6 9c.1.3.2.7.2 1.2v.2c.3-.1.5-.2.8-.2-.2-.6-.5-1.1-1-1.2z"></path>
  </symbol>
  <symbol xmlns="http://www.w3.org/2000/svg" viewBox="0 0 32 32" id="social-1_square-skype">
    <path fill="#444" d="M0 0v32h32V0H0zm22.7 22.7c-.8.8-2 1.3-3.2 1.3-.8 0-1.5-.2-2.2-.6-.4.1-.9.1-1.3.1-1 0-2-.2-2.9-.6-.9-.4-1.7-.9-2.4-1.6-.7-.7-1.3-1.5-1.7-2.4-.4-.9-.6-1.9-.6-2.9 0-.4 0-.9.1-1.3-.3-.7-.5-1.4-.5-2.2 0-1.2.5-2.3 1.3-3.2.8-.8 2-1.3 3.2-1.3.7 0 1.5.2 2.1.5.4 0 .9-.1 1.4-.1 1 0 2 .2 2.9.6.9.4 1.7.9 2.4 1.6.7.7 1.2 1.5 1.6 2.4.4.9.6 1.9.6 2.9 0 .5 0 .9-.1 1.4.4.7.6 1.4.6 2.2 0 1.2-.5 2.3-1.3 3.2z"></path>
    <path fill="#444" d="M17.4 15.1l-1.8-.4c-.7-.2-1.4-.4-1.4-1s.5-1.1 1.5-1.1c2 0 1.8 1.4 2.8 1.4.5 0 1-.3 1-.8 0-1.2-1.9-2.1-3.6-2.1-1.8 0-3.7.8-3.7 2.8 0 1 .3 2 2.3 2.5l2.4.6c.7.2.9.6.9 1 0 .6-.6 1.2-1.7 1.2-2.1 0-1.8-1.6-3-1.6-.5 0-.9.4-.9.9 0 1 1.2 2.3 3.9 2.3 2.6 0 3.8-1.2 3.8-2.9 0-1.3-.5-2.4-2.5-2.8z"></path>
  </symbol>
  <symbol xmlns="http://www.w3.org/2000/svg" viewBox="0 0 32 32" id="social-1_square-slack">
    <path fill="#444" d="M14.832 18.184l-1.08-3.224 3.32-1.112 1.08 3.224z"></path>
    <path fill="#444" d="M0 0v32h32V0H0zm23.1 18.1l-1.6.5.6 1.7c.2.7-.1 1.4-.8 1.6-.1 0-.3.1-.4.1-.5 0-1-.4-1.2-.9l-.7-1.6-3.3 1.1.6 1.7c.2.7-.1 1.4-.8 1.6-.2.1-.4.1-.5.1-.5 0-1-.4-1.2-.9l-.6-1.7-1.6.6c-.1 0-.3.1-.4.1-.5 0-1-.4-1.2-.9-.2-.7.1-1.4.8-1.6l1.6-.5-1.1-3.2-1.6.5c-.1 0-.3.1-.4.1-.5 0-1-.4-1.2-.9-.2-.7.1-1.4.8-1.6l1.6-.5-.5-1.9c-.2-.7.1-1.4.8-1.6.7-.2 1.4.1 1.6.8l.6 1.7 3.3-1.1-.6-1.7c-.2-.7.1-1.4.8-1.6.7-.2 1.4.1 1.6.8l.6 1.7 1.6-.5c.7-.2 1.4.1 1.6.8.2.7-.1 1.4-.8 1.6l-1.5.5 1.1 3.2 1.6-.5c.7-.2 1.4.1 1.6.8.2.7-.1 1.4-.8 1.6z"></path>
  </symbol>
  <symbol xmlns="http://www.w3.org/2000/svg" viewBox="0 0 32 32" id="social-1_square-soundcloud">
    <path fill="#444" d="M0 0v32h32V0H0zm8.4 19.1l-.1.1c-.1 0-.1 0-.1-.1l-.3-1.5.3-1.5.1-.1c.1 0 .1 0 .1.1l.4 1.5-.4 1.5zm2.7.4c0 .1-.1.1-.3.1-.2 0-.3-.1-.3-.1l-.3-1.8.3-2.7c0-.1.1-.1.3-.1.1 0 .3.1.3.1l.3 2.7-.3 1.8zm3-.1c0 .1-.2.2-.5.2s-.5-.1-.5-.2l-.3-1.7.3-3.7c0-.1.2-.2.5-.2s.5.1.5.2l.3 3.7-.3 1.7zm7.9.2h-5.6c-.1 0-.2-.1-.2-.2v-6.5c0-.1 0-.2.2-.2.4-.2.8-.2 1.3-.2 1.9 0 3.4 1.4 3.6 3.3.2-.1.5-.2.8-.2 1.1 0 2 .9 2 2-.1 1.1-1 2-2.1 2z"></path>
  </symbol>
  <symbol xmlns="http://www.w3.org/2000/svg" viewBox="0 0 32 32" id="social-1_square-spotify">
    <path fill="#444" d="M19.5 18.9c-2.1-1.3-4.7-1.6-7.8-.9-.2.1-.4.3-.4.6.1.2.3.4.6.4 2.8-.6 5.2-.4 7 .8.2.2.5.1.7-.2.2-.3.2-.6-.1-.7zm1-2.3c-2.5-1.5-6.1-2-9-1.1-.3.1-.5.4-.4.8.1.3.4.5.8.4 2.5-.8 5.8-.4 8 .9.3.2.6.1.8-.2.1-.3 0-.7-.2-.8z"></path>
    <path fill="#444" d="M0 0v32h32V0H0zm16 24c-4.4 0-8-3.6-8-8s3.6-8 8-8 8 3.6 8 8-3.6 8-8 8z"></path>
    <path fill="#444" d="M11 12.8c-.4.1-.6.5-.5.9.1.4.5.6.9.5 2.4-.8 6.7-.6 9.3.9.4.2.8.1 1-.2.2-.4.1-.8-.3-1-2.9-1.8-7.6-1.9-10.4-1.1z"></path>
  </symbol>
  <symbol xmlns="http://www.w3.org/2000/svg" viewBox="0 0 32 32" id="social-1_square-trello">
    <path fill="#444" d="M0 0v32h32V0H0zm13 24H8c-.6 0-1-.4-1-1V9c0-.6.4-1 1-1h5c.6 0 1 .4 1 1v14c0 .6-.4 1-1 1zm11-6h-5c-.6 0-1-.4-1-1V9c0-.6.4-1 1-1h5c.6 0 1 .4 1 1v8c0 .6-.5 1-1 1z"></path>
  </symbol>
  <symbol xmlns="http://www.w3.org/2000/svg" viewBox="0 0 32 32" id="social-1_square-tumblr">
    <path fill="#444" d="M0 0v32h32V0H0zm17.8 24c-3.5.1-4.8-2.5-4.8-4.3v-5.2h-1.6v-2.1c2.4-.9 3-3.1 3.1-4.3.1-.1.1-.1.2-.1H17v4.1h3.2v2.4H17v5c0 .7.3 1.6 1.5 1.6.4 0 1-.1 1.3-.3l.8 2.3c-.3.4-1.6.9-2.8.9z"></path>
  </symbol>
  <symbol xmlns="http://www.w3.org/2000/svg" viewBox="0 0 32 32" id="social-1_square-twitter">
    <path fill="#444" d="M0 0v32h32V0H0zm22.4 12.7v.4c0 4.3-3.3 9.3-9.3 9.3-1.9 0-3.6-.5-5-1.5h.8c1.5 0 3-.5 4.1-1.4-1.4 0-2.6-1-3.1-2.3.2 0 .4.1.6.1.3 0 .6 0 .9-.1-1.5-.3-2.6-1.6-2.6-3.2.4.2.9.4 1.5.4-.9-.6-1.5-1.6-1.5-2.7 0-.6.2-1.2.4-1.7 1.6 2 4 3.3 6.8 3.4-.1-.2-.1-.5-.1-.7 0-1.8 1.5-3.3 3.3-3.3.9 0 1.8.4 2.4 1 .7-.1 1.5-.4 2.1-.8-.2.8-.8 1.4-1.4 1.8.7-.1 1.3-.3 1.9-.5-.6.8-1.2 1.4-1.8 1.8z"></path>
  </symbol>
  <symbol xmlns="http://www.w3.org/2000/svg" viewBox="0 0 32 32" id="social-1_square-vimeo">
    <path fill="#444" d="M0 0v32h32V0H0zm20.7 18.7c-2.2 2.8-4 4.2-5.5 4.2-.9 0-1.7-.9-2.4-2.6-.4-1.6-.9-3.2-1.3-4.7-.5-1.7-1-2.6-1.5-2.6-.1 0-.5.3-1.3.8l-.8-1c.8-.7 1.6-1.4 2.3-2.1 1.1-.9 1.8-1.4 2.4-1.4 1.2-.1 2 .7 2.3 2.6.3 2 .5 3.2.6 3.7.4 1.6.8 2.4 1.2 2.4.3 0 .8-.5 1.5-1.6s1-1.9 1.1-2.4c.1-.9-.3-1.4-1.1-1.4-.4 0-.8.1-1.2.3.8-2.6 2.3-3.8 4.5-3.8 1.6 0 2.4 1.1 2.3 3.2.1 1.5-1 3.7-3.1 6.4z"></path>
  </symbol>
  <symbol xmlns="http://www.w3.org/2000/svg" viewBox="0 0 32 32" id="social-1_square-vine">
    <path fill="#444" d="M0 0v32h32V0H0zm19.4 10.4c-.7 0-1.1.6-1.1 1.8 0 2.5 1.6 3.9 3.6 3.9.4 0 .8 0 1.2-.1v1.9c-.7.2-1.3.2-1.9.2-1.3 2.8-3.8 5.2-4.6 5.7-.5.3-1 .3-1.6 0-1-.6-4.7-3.7-6-13.3h2.7c.7 5.8 2.4 8.8 4.2 11 1-1 2-2.4 2.8-3.9-1.8-.9-2.9-3-2.9-5.3 0-2.4 1.4-4.2 3.7-4.2 2.3 0 3.5 1.4 3.5 3.9 0 .9-.2 1.9-.6 2.8-1.7.3-2.3-.8-2.3-.8.1-.4.3-1.1.3-1.8 0-1.2-.4-1.8-1-1.8z"></path>
  </symbol>
  <symbol xmlns="http://www.w3.org/2000/svg" viewBox="0 0 32 32" id="social-1_square-whatsapp">
    <path fill="#444" d="M16 9.3c-3.6 0-6.6 3-6.6 6.6 0 1.2.3 2.5 1 3.5l.2.2-.7 2.4 2.5-.7.2.1c1 .6 2.2.9 3.4.9 3.6 0 6.6-3 6.6-6.6 0-1.8-.7-3.4-1.9-4.7-1.2-1-2.9-1.7-4.7-1.7zm3.9 9.5c-.2.5-1 .9-1.3.9-.3.1-.8.1-1.2-.1-.3-.1-.7-.2-1.1-.4-2-.9-3.3-2.9-3.4-3-.1-.1-.8-1.1-.8-2 0-1 .5-1.5.7-1.7.2-.2.4-.2.5-.2h.4c.1 0 .3 0 .4.3.2.4.6 1.4.6 1.5s.1.2 0 .3c-.1.1-.1.2-.2.3-.1.1-.2.3-.3.3-.1.1-.2.2-.1.4s.5.8 1.1 1.4c.8.7 1.4.9 1.6 1 .2.1.3.1.4 0 .1-.1.5-.6.6-.8.1-.2.3-.2.4-.1.2.1 1.2.5 1.4.6.2.1.3.1.4.2.1.2.1.6-.1 1.1z"></path>
    <path fill="#444" d="M0 0v32h32V0H0zm16 23.9c-1.3 0-2.6-.3-3.8-1L8 24l1.1-4.1c-.7-1.2-1.1-2.6-1.1-4 .1-4.3 3.7-7.9 8-7.9 2.1 0 4.1.8 5.6 2.3 1.5 1.5 2.3 3.5 2.3 5.6.1 4.4-3.5 8-7.9 8z"></path>
  </symbol>
  <symbol xmlns="http://www.w3.org/2000/svg" viewBox="0 0 32 32" id="social-1_square-wordpress">
    <path fill="#444" d="M16.1 16.6L14 22.9c.6.2 1.3.3 2 .3.8 0 1.6-.1 2.4-.4 0 0 0-.1-.1-.1l-2.2-6.1z"></path>
    <path fill="#444" d="M20.9 15.6c0-.9-.3-1.5-.6-2-.4-.6-.7-1.1-.7-1.7 0-.7.5-1.3 1.2-1.3h.1c-1.3-1.2-3-1.9-4.9-1.9-2.5 0-4.7 1.3-6 3.2h.5c.8 0 1.9-.1 1.9-.1.4 0 .4.5 0 .6 0 0-.4 0-.8.1l2.6 7.8 1.6-4.7-1.1-3.1c-.4 0-.8-.1-.8-.1-.4 0-.3-.6 0-.6 0 0 1.2.1 1.9.1.8 0 1.9-.1 1.9-.1.4 0 .4.5 0 .6 0 0-.4 0-.8.1l2.6 7.7.7-2.4c.4-.8.7-1.5.7-2.2zM8.8 16c0 2.8 1.7 5.3 4.1 6.5l-3.4-9.4C9 14 8.8 15 8.8 16z"></path>
    <path fill="#444" d="M0 0v32h32V0H0zm16 24c-4.4 0-8-3.6-8-8s3.6-8 8-8 8 3.6 8 8-3.6 8-8 8z"></path>
    <path fill="#444" d="M19.6 22.2c2.1-1.2 3.6-3.6 3.6-6.2 0-1.3-.3-2.4-.9-3.5v.7c0 .7-.1 1.6-.5 2.6l-2.2 6.4z"></path>
  </symbol>
  <symbol xmlns="http://www.w3.org/2000/svg" viewBox="0 0 32 32" id="social-1_square-yelp">
    <path fill="#444" d="M0 0v32h32V0H0zm10.2 19c-.1-.1-.1-.4-.2-.7-.1-.9 0-2.2.3-2.6.1-.2.3-.3.5-.3.1 0 .2 0 2.8 1.1l.7.3c.3.1.4.4.4.7 0 .3-.2.6-.5.6l-1 .3c-2.3.8-2.4.8-2.6.8-.1.1-.3 0-.4-.2zm5.8 1.9c0 2.5 0 2.6-.1 2.7-.1.2-.2.3-.4.4-.6.1-2.6-.6-3-1.1-.1-.1-.1-.2-.1-.3v-.2c0-.1.1-.2 1.9-2.3l.5-.6c.2-.2.5-.3.8-.2.3.1.5.4.4.6v1zm-.4-5.3c-.1 0-.5.2-1-.6 0 0-3.2-5.2-3.3-5.3 0-.2 0-.4.2-.5.5-.6 3.1-1.3 3.8-1.2.2.1.4.2.4.4s.4 5 .4 6.1c0 1-.4 1.1-.5 1.1zm1.7.3l.7-.9c1.4-2 1.5-2.1 1.6-2.2.2-.1.4-.1.6 0 .6.3 1.7 2 1.8 2.7 0 .2-.1.4-.2.5-.1.1-.2.1-2.9.8-.6.1-.8.2-.9.2-.3.1-.6-.1-.7-.3-.2-.3-.2-.6 0-.8zm2.7 6.9c-.2.1-.4.1-.6-.1-.1-.1-.2-.2-1.6-2.6l-.4-.7c-.2-.2-.1-.6.1-.8.2-.2.5-.3.7-.2l1 .4c2.3.8 2.4.8 2.5.9.2.1.2.3.2.5 0 .6-1.3 2.3-1.9 2.6z"></path>
  </symbol>
  <symbol xmlns="http://www.w3.org/2000/svg" viewBox="0 0 32 32" id="social-1_square-youtube">
    <path fill="#444" d="M14.3 18.1l4.4-2.3-4.4-2.2z"></path>
    <path fill="#444" d="M0 0v32h32V0H0zm24 16.6c0 1.3-.2 2.6-.2 2.6s-.2 1.1-.6 1.6c-.6.6-1.3.6-1.6.7-2.2.2-5.6.2-5.6.2s-4.2 0-5.4-.2c-.4-.1-1.2 0-1.8-.7-.5-.5-.6-1.6-.6-1.6S8 17.9 8 16.6v-1.2c0-1.3.2-2.6.2-2.6s.2-1.1.6-1.6c.6-.6 1.3-.6 1.6-.7 2.2-.2 5.6-.2 5.6-.2s3.4 0 5.6.2c.3 0 1 0 1.6.7.5.5.6 1.6.6 1.6s.2 1.3.2 2.6v1.2z"></path>
  </symbol>
  <symbol xmlns="http://www.w3.org/2000/svg" viewBox="0 0 32 32" id="social-2_round-500px">
    <path fill="#444" d="M13.1 14.1h2.8c.5 0 1-.4 1-1 0-.5-.4-1-1-1h-2.8c-.5 0-1 .4-1 1 .1.5.5 1 1 1zm5.7 3.8h-5.7c-.5 0-1 .4-1 1 0 .5.4 1 1 1h5.7c.5 0 1-.4 1-1s-.4-1-1-1z"></path>
    <path fill="#444" d="M16 0C7.2 0 0 7.2 0 16s7.2 16 16 16 16-7.2 16-16S24.8 0 16 0zm7.9 19c0 2.8-2.3 5-5.1 5H13c-2.7 0-5-2.3-5-5v-5.9C8 10.3 10.3 8 13.1 8h3.5c1.5 0 3.2 1.3 3.9 2.8.2.4.3.7.5 1.7.1.6.1 1.1.4 1.4.4.4 1.8.2 2.2.3.4.2.4.7.4.7l-.1 4.1z"></path>
  </symbol>
  <symbol xmlns="http://www.w3.org/2000/svg" viewBox="0 0 32 32" id="social-2_round-blogger">
    <path fill="#444" d="M16 0C7.2 0 0 7.2 0 16s7.2 16 16 16 16-7.2 16-16S24.8 0 16 0zm7.6 20.6l-7.3 3.3c-.2.1-.5.1-.7 0l-7.3-3.3c-.2-.1-.2-.4 0-.5l1.5-.7c.2-.1.5-.1.7 0l5.1 2.3c.2.1.5.1.7 0l5.1-2.3c.2-.1.5-.1.7 0l1.5.7c.2.1.2.4 0 .5zm0-4.3l-7.3 3.3c-.2.1-.5.1-.7 0l-7.3-3.3c-.2-.1-.2-.4 0-.5l1.5-.7c.2-.1.5-.1.7 0l5.1 2.3c.2.1.5.1.7 0l5.1-2.3c.2-.1.5-.1.7 0l1.5.7c.2.1.2.4 0 .5zm0-4.3l-7.3 3.3c-.2.1-.5.1-.7 0L8.4 12c-.2-.1-.2-.4 0-.5l7.2-3.4c.3-.1.5-.1.8 0l7.2 3.4c.2.1.2.4 0 .5z"></path>
  </symbol>
  <symbol xmlns="http://www.w3.org/2000/svg" viewBox="0 0 32 32" id="social-2_round-buffer">
    <path fill="#444" d="M13.4 14.8c-.2-.2-.5-.3-.8-.5-.3-.1-.5-.2-.8-.2-.5 0-1 .2-1.3.5-.3.4-.5.8-.5 1.3s.1.9.4 1.3c.3.3.7.5 1.2.5.3 0 .6-.1.9-.2.3-.1.5-.2.8-.4.2-.2.5-.4.7-.6l.6-.6-.6-.6c-.1-.1-.3-.3-.6-.5zm6.8-.6c-.3 0-.6.1-.8.2-.3.1-.5.3-.8.5-.2.2-.5.4-.7.6l-.6.6.6.6c.2.2.5.4.7.6.2.2.5.3.8.4.3.1.6.2.9.2.5 0 1-.2 1.2-.5.3-.3.4-.8.4-1.3s-.2-.9-.5-1.3c-.2-.5-.7-.6-1.2-.6z"></path>
    <path fill="#444" d="M16 0C7.2 0 0 7.2 0 16s7.2 16 16 16 16-7.2 16-16S24.8 0 16 0zm7.7 17.5c-.2.5-.4.9-.7 1.3-.3.4-.7.7-1.2.9-.5.2-1 .3-1.6.3-.5 0-.9-.1-1.3-.2s-.8-.3-1.1-.5c-.3-.2-.7-.5-1-.8l-.9-.9-.9.9c-.3.3-.6.6-1 .8-.3.2-.7.4-1.1.5-.4.1-.8.2-1.3.2-.6 0-1.1-.1-1.6-.3-.5-.2-.9-.5-1.2-.9-.3-.4-.6-.8-.7-1.3 0-.5-.1-1-.1-1.6 0-.6.1-1.1.3-1.6.2-.5.4-.9.7-1.3.3-.4.7-.6 1.2-.8.5-.2 1-.3 1.6-.3.5 0 .9.1 1.3.2s.8.3 1.1.6c.3.2.7.5 1 .8.3.3.6.6.9 1 .3-.3.6-.7.9-1 .3-.3.6-.6 1-.8.3-.2.7-.4 1.1-.6.4-.1.8-.2 1.3-.2.6 0 1.1.1 1.6.3.5.2.9.5 1.2.8.3.4.6.8.7 1.3.2.5.3 1 .3 1.6-.2.6-.3 1.1-.5 1.6z"></path>
  </symbol>
  <symbol xmlns="http://www.w3.org/2000/svg" viewBox="0 0 32 32" id="social-2_round-buysellads">
    <path fill="#444" d="M16 0C7.2 0 0 7.2 0 16s7.2 16 16 16 16-7.2 16-16S24.8 0 16 0zm3.6 23.5L16 10.9l-2.3 7.9h4.5l-5.6 4.7H8l4.7-15h6.5l4.7 15h-4.3z"></path>
  </symbol>
  <symbol xmlns="http://www.w3.org/2000/svg" viewBox="0 0 32 32" id="social-2_round-codepen">
    <path fill="#444" d="M9.4 14.8v2.4l1.7-1.2zm.5 3.6l5.4 3.6v-3.2l-3-2zm12.2-4.8L16.7 10v3.2l3 2zm-6.1.8L13.6 16l2.4 1.6 2.4-1.6zm-.7-1.2V10l-5.4 3.6 2.4 1.6zm1.4 5.6V22l5.4-3.6-2.4-1.6z"></path>
    <path fill="#444" d="M16 0C7.2 0 0 7.2 0 16s7.2 16 16 16 16-7.2 16-16S24.8 0 16 0zm8 18.4c0 .1 0 .1 0 0v.3l-7.3 4.9c-.4.4-.6.4-.7.4-.1 0-.3 0-.4-.1L8.3 19v-5.5l7.3-4.9c.2-.2.5-.2.8 0l7.3 4.9v4.9z"></path>
    <path fill="#444" d="M22.6 17.2v-2.4L20.9 16z"></path>
  </symbol>
  <symbol xmlns="http://www.w3.org/2000/svg" viewBox="0 0 32 32" id="social-2_round-creative-market">
    <circle fill="#444" cx="21.1" cy="11" r="1"></circle>
    <path fill="#444" d="M17.6 15.7l2.1-1-.8-1.3-1.8 1.2c-.1.1-.2.1-.3 0-.1 0-.1-.1-.1-.2l.1-2.2h-1.5l.2 2.2c0 .1 0 .2-.1.2h-.3l-1.9-1.2-.7 1.3 2 1c.1 0 .1.1.1.2s-.1.2-.1.2l-2.1 1 .8 1.3 1.8-1.2c.1-.1.2-.1.3 0 .1 0 .1.1.1.2l-.1 2.2h1.5l-.2-2.2c0-.1 0-.2.1-.2h.2l1.9 1.2.7-1.3-2-1c-.1 0-.1-.1-.1-.2.1 0 .2-.1.2-.2z"></path>
    <path fill="#444" d="M16 0C7.2 0 0 7.2 0 16s7.2 16 16 16 16-7.2 16-16S24.8 0 16 0zm6.9 16.8l-6.7 6.7c-.2.2-1.2 1.1-2.7-.3l-4.7-4.7c-1.4-1.4-.6-2.4-.3-2.7.3-.2 6.2-6.2 6.7-6.7C16.3 8 16.9 8 17.8 8c.6 0 4.2.3 4.2.3.6 0 1 .2 1.2.5.3.3.5.7.5 1.2 0 0 .3 3.6.3 4.3 0 .8 0 1.4-1.1 2.5z"></path>
  </symbol>
  <symbol xmlns="http://www.w3.org/2000/svg" viewBox="0 0 32 32" id="social-2_round-envato">
    <path fill="#444" d="M16 0C7.2 0 0 7.2 0 16s7.2 16 16 16 16-7.2 16-16S24.8 0 16 0zm6.1 20.2c-2 4.4-7.1 4.4-9.7 2.9-2.2-1.3-5.6-5.5-1.8-10.6.2-.2.5-.2.5.4-.1.4-.6 3.4.4 4.7.5.6.6.2.6.2s-.1-4.3 3.3-7.6c2.1-2 5.1-2.3 5.7-2 .6.2 3.5 6.5 1 12z"></path>
  </symbol>
  <symbol xmlns="http://www.w3.org/2000/svg" viewBox="0 0 32 32" id="social-2_round-feedly">
    <path fill="#444" d="M17.1 13.1c-.2-.3-.5-.5-.8-.8-.1-.1-.3-.3-.4-.2-.2.2-.4.3-.5.5l-4.1 4.1c-.1.1-.3.3-.1.4.2.3.5.5.7.7.3 0 .7.1.9-.1l4.2-4.2c.1-.1.2-.3.1-.4zm-.8 2.9c-.1-.1-.2-.3-.4-.2-.2.1-.3.3-.4.4l-2.3 2.3c-.1.1-.3.3-.1.4.2.2.4.5.7.7.3 0 .7.1.9-.2l2.3-2.3c.1-.1.2-.2.1-.4-.2-.2-.5-.4-.8-.7zm-.1 3.7c-.1-.1-.3-.2-.4-.1l-.9.9c-.2.2 0 .4.2.5.2.2.3.4.6.5h.7c.3-.2.5-.4.7-.7.1-.1.1-.3 0-.4-.3-.2-.6-.5-.9-.7z"></path>
    <path fill="#444" d="M16 0C7.2 0 0 7.2 0 16s7.2 16 16 16 16-7.2 16-16S24.8 0 16 0zm7.7 17.9c-.2.3-.4.5-.6.7l-3.9 3.9c-.4.4-.9.6-1.5.5h-3.6c-.5 0-.9-.2-1.2-.5l-4.4-4.4c-.4-.4-.6-1.1-.5-1.7.1-.3.3-.6.5-.9l6.2-6.2.9-.3c.4-.1.8-.1 1.1.1.4.2.6.5.9.7l5.5 5.5c.3.3.7.6.8 1 .2.5.1 1.2-.2 1.6z"></path>
  </symbol>
  <symbol xmlns="http://www.w3.org/2000/svg" viewBox="0 0 32 32" id="social-2_round-flickr">
    <path fill="#444" d="M16 0C7.2 0 0 7.2 0 16s7.2 16 16 16 16-7.2 16-16S24.8 0 16 0zm-4.4 19.6C9.6 19.6 8 18 8 16s1.6-3.6 3.6-3.6 3.6 1.6 3.6 3.6c-.1 2-1.7 3.6-3.6 3.6zm8.8 0c-2 0-3.6-1.6-3.6-3.6s1.6-3.6 3.6-3.6S24 14 24 16s-1.6 3.6-3.6 3.6z"></path>
  </symbol>
  <symbol xmlns="http://www.w3.org/2000/svg" viewBox="0 0 32 32" id="social-2_round-lastfm">
    <path fill="#444" d="M16 0C7.2 0 0 7.2 0 16s7.2 16 16 16 16-7.2 16-16S24.8 0 16 0zm4.2 20.4c-3.2 0-4.3-1.4-4.9-3.2l-.6-1.8c-.4-1.3-1-2.4-2.6-2.4-1.1 0-2.3.8-2.3 3.1 0 1.8.9 2.9 2.2 2.9 1.4 0 2.4-1.1 2.4-1.1l.6 1.6s-1 1-3.1 1c-2.6 0-4-1.5-4-4.3 0-2.9 1.4-4.6 4.1-4.6 2.4 0 3.7.9 4.4 3.3l.6 1.8c.4 1.3 1.2 2.3 3.1 2.3 1.2 0 1.9-.3 1.9-1 0-.5-.3-.9-1.2-1.1l-1.2-.3c-1.5-.4-2.1-1.2-2.1-2.4 0-2 1.6-2.6 3.3-2.6 1.9 0 3 .7 3.2 2.3l-1.8.2c-.2-.8-.7-1.1-1.5-1.1s-1.3.4-1.3 1c0 .5.2.9 1 1.1l1.2.3c1.6.4 2.4 1.1 2.4 2.6 0 1.7-1.5 2.4-3.8 2.4z"></path>
  </symbol>
  <symbol xmlns="http://www.w3.org/2000/svg" viewBox="0 0 32 32" id="social-2_round-myspace">
    <path fill="#444" d="M16 0C7.2 0 0 7.2 0 16s7.2 16 16 16 16-7.2 16-16S24.8 0 16 0zm5.2 11.1c1.4 0 2.5 1.1 2.5 2.5s-1.1 2.5-2.5 2.5-2.5-1.1-2.5-2.5c0-1.3 1.1-2.5 2.5-2.5zm-5.7 1c1.3 0 2.3 1 2.3 2.3 0 1.3-1 2.3-2.3 2.3-1.3 0-2.3-1-2.3-2.3 0-1.3 1-2.3 2.3-2.3zm-5.2.9c1.1 0 2.1.9 2.1 2.1 0 1.1-.9 2.1-2.1 2.1-1.1 0-2.1-.9-2.1-2.1 0-1.2.9-2.1 2.1-2.1zm2.2 7.7c0 .1-.1.2-.2.2H8.2c-.1 0-.2-.1-.2-.2v-.8c0-1.2 1-2.3 2.3-2.3 1.3 0 2.3 1.1 2.3 2.3v.8zm5.5 0c0 .1-.1.2-.2.2h-4.6c-.1 0-.2-.1-.2-.2v-.9c0-1.3 1.1-2.6 2.5-2.6s2.5 1.3 2.5 2.6v.9zm6-.1c0 .1-.1.3-.3.3h-5.1c-.1 0-.3-.1-.3-.3v-1c0-1.5 1.2-2.9 2.8-2.9 1.6 0 2.8 1.4 2.8 2.9v1z"></path>
  </symbol>
  <symbol xmlns="http://www.w3.org/2000/svg" viewBox="0 0 32 32" id="social-2_round-paypal">
    <path fill="#444" d="M16 0C7.2 0 0 7.2 0 16s7.2 16 16 16 16-7.2 16-16S24.8 0 16 0zM9.6 22.2c-.3 0-.5-.2-.4-.5l2.1-13.1c.1-.3.3-.6.7-.6h5c1.7 0 3.1.4 3.8 1.2.7.8.9 1.6.7 2.9 0 0 0 .2-.1.3-.7 3.4-2.9 4.5-5.8 4.5h-1.5c-.4 0-.6.3-.7.6v-.2l-.8 4.9h-3zm13.1-6.6c-.6 2.9-2.5 4-5 4h-.4c-.3 0-.6.2-.6.5v.2l-.5 3.1v.1c0 .3-.3.5-.6.5h-2.1l1-6.2h1.3c3.6 0 5.9-1.8 6.6-5.1.4.7.5 1.7.3 2.9z"></path>
  </symbol>
  <symbol xmlns="http://www.w3.org/2000/svg" viewBox="0 0 32 32" id="social-2_round-reddit">
    <path fill="#444" d="M18 19.6c-.4.4-1 .6-2 .6s-1.6-.2-2-.6c-.2-.2-.4-.2-.6 0-.2.2-.2.4 0 .6.6.6 1.4.8 2.6.8 1.2 0 2.1-.3 2.6-.8.2-.2.2-.4 0-.6-.1-.2-.4-.2-.6 0zM14.7 17c0-.6-.5-1.1-1.1-1.1-.6 0-1.1.5-1.1 1.1 0 .6.5 1.1 1.1 1.1.6 0 1.1-.5 1.1-1.1zm3.7-1.1c-.6 0-1.1.5-1.1 1.1s.5 1.1 1.1 1.1 1.1-.5 1.1-1.1-.5-1.1-1.1-1.1z"></path>
    <path fill="#444" d="M16 0C7.2 0 0 7.2 0 16s7.2 16 16 16 16-7.2 16-16S24.8 0 16 0zm7.1 17.5v.4c0 1.3-.8 2.6-2.2 3.5-1.3.9-3.1 1.4-5 1.4s-3.7-.5-5-1.4c-1.4-.9-2.2-2.1-2.2-3.5v-.5c-.4-.3-.7-.9-.7-1.5 0-1.1.9-1.9 1.9-1.9.4 0 .9.2 1.2.4 1.3-.8 2.9-1.2 4.6-1.3l1-3.3c.1-.2.3-.3.5-.3l2.7.6c.3-.5.8-.9 1.4-.9.9 0 1.6.7 1.6 1.6 0 .9-.7 1.6-1.6 1.6-.8 0-1.5-.7-1.6-1.5l-2.3-.5-.8 2.6c1.6.1 3.1.5 4.3 1.3.3-.3.8-.4 1.2-.4 1.1 0 1.9.9 1.9 1.9 0 .7-.4 1.3-.9 1.7z"></path>
  </symbol>
  <symbol xmlns="http://www.w3.org/2000/svg" viewBox="0 0 32 32" id="social-2_round-rss">
    <path fill="#444" d="M16 0C7.2 0 0 7.2 0 16s7.2 16 16 16 16-7.2 16-16S24.8 0 16 0zm-5.7 24C9 24 8 23 8 21.7s1-2.3 2.3-2.3 2.3 1 2.3 2.3-1 2.3-2.3 2.3zm5.8 0c0-4.5-3.6-8.1-8.1-8.1v-2.5c5.8 0 10.6 4.7 10.6 10.6h-2.5zm5.4 0c0-7.5-6.1-13.5-13.5-13.5V8c8.8 0 16 7.2 16 16h-2.5z"></path>
  </symbol>
  <symbol xmlns="http://www.w3.org/2000/svg" viewBox="0 0 32 32" id="social-2_round-soundcloud">
    <path fill="#444" d="M16 0C7.2 0 0 7.2 0 16s7.2 16 16 16 16-7.2 16-16S24.8 0 16 0zM8.4 19.1l-.1.1c-.1 0-.1 0-.1-.1l-.3-1.5.3-1.5.1-.1c.1 0 .1 0 .1.1l.4 1.5-.4 1.5zm2.7.4c0 .1-.1.1-.3.1-.2 0-.3-.1-.3-.1l-.3-1.8.3-2.7c0-.1.1-.1.3-.1.1 0 .3.1.3.1l.3 2.7-.3 1.8zm3-.1c0 .1-.2.2-.5.2s-.5-.1-.5-.2l-.3-1.7.3-3.7c0-.1.2-.2.5-.2s.5.1.5.2l.3 3.7-.3 1.7zm7.9.2h-5.6c-.1 0-.2-.1-.2-.2v-6.5c0-.1 0-.2.2-.2.4-.2.8-.2 1.3-.2 1.9 0 3.4 1.4 3.6 3.3.2-.1.5-.2.8-.2 1.1 0 2 .9 2 2-.1 1.1-1 2-2.1 2z"></path>
  </symbol>
  <symbol xmlns="http://www.w3.org/2000/svg" viewBox="0 0 32 32" id="social-2_round-spotify-12">
    <path fill="#444" d="M15.7 8.6c-.1-.1-.2-.1-.3-.1-1.5 0-2.3 1.9-2.7 3.1.4-.1.8-.3 1.3-.4.3-1.5 1.1-2.2 1.7-2.6zm-1 2.5c.5-.2 1.1-.3 1.6-.5v-.1c0-.6-.1-1.1-.2-1.4-.5.2-1.1.8-1.4 2zm-2.8 5.3c0 1.8 1.8 1.8 1.8 2.9 0 .3-.2.6-.6.6-.7 0-1.5-.7-1.5-.7l-.4 1.4s.8 1 2.4 1c1.3 0 2.3-1 2.3-2.5 0-1.9-2.2-2.3-2.2-3.1 0-.2 0-.8 1-.8.7 0 1.2.3 1.2.3l.6-1.8s-.4-.2-1.2-.2c-2.3 0-3.4 1.4-3.4 2.9zM16.6 9c.1.3.2.7.2 1.2v.2c.3-.1.5-.2.8-.2-.2-.6-.5-1.1-1-1.2z"></path>
    <path fill="#444" d="M16 0C7.2 0 0 7.2 0 16s7.2 16 16 16 16-7.2 16-16S24.8 0 16 0zm2.1 24L9 22.3s1.2-9.1 1.2-9.4c.1-.4.1-.4.5-.6.1 0 .6-.2 1.4-.4.3-1.3 1.3-3.9 3.4-3.9.3 0 .6.1.8.5h.1c.9 0 1.4.8 1.7 1.6.3-.1.5-.1.5-.1h.3l.9.9s1.2.1 1.3.1c.1 0 .1 0 .1.1s1.7 11.8 1.7 11.8L18.1 24z"></path>
  </symbol>
  <symbol xmlns="http://www.w3.org/2000/svg" viewBox="0 0 32 32" id="social-2_round-trello">
    <path fill="#444" d="M16 0C7.2 0 0 7.2 0 16s7.2 16 16 16 16-7.2 16-16S24.8 0 16 0zm-3 24H8c-.6 0-1-.4-1-1V9c0-.6.4-1 1-1h5c.6 0 1 .4 1 1v14c0 .6-.4 1-1 1zm11-6h-5c-.6 0-1-.4-1-1V9c0-.6.4-1 1-1h5c.6 0 1 .4 1 1v8c0 .6-.5 1-1 1z"></path>
  </symbol>
  <symbol xmlns="http://www.w3.org/2000/svg" viewBox="0 0 32 32" id="social-2_round-vine">
    <path fill="#444" d="M16 9.3c-3.6 0-6.6 3-6.6 6.6 0 1.2.3 2.5 1 3.5l.2.2-.7 2.4 2.5-.7.2.1c1 .6 2.2.9 3.4.9 3.6 0 6.6-3 6.6-6.6 0-1.8-.7-3.4-1.9-4.7-1.2-1-2.9-1.7-4.7-1.7zm3.9 9.5c-.2.5-1 .9-1.3.9-.3.1-.8.1-1.2-.1-.3-.1-.7-.2-1.1-.4-2-.9-3.3-2.9-3.4-3-.1-.1-.8-1.1-.8-2 0-1 .5-1.5.7-1.7.2-.2.4-.2.5-.2h.4c.1 0 .3 0 .4.3.2.4.6 1.4.6 1.5s.1.2 0 .3c-.1.1-.1.2-.2.3-.1.1-.2.3-.3.3-.1.1-.2.2-.1.4s.5.8 1.1 1.4c.8.7 1.4.9 1.6 1 .2.1.3.1.4 0 .1-.1.5-.6.6-.8.1-.2.3-.2.4-.1.2.1 1.2.5 1.4.6.2.1.3.1.4.2.1.2.1.6-.1 1.1z"></path>
    <path fill="#444" d="M16 0C7.2 0 0 7.2 0 16s7.2 16 16 16 16-7.2 16-16S24.8 0 16 0zm0 23.9c-1.3 0-2.6-.3-3.8-1L8 24l1.1-4.1c-.7-1.2-1.1-2.6-1.1-4 .1-4.3 3.7-7.9 8-7.9 2.1 0 4.1.8 5.6 2.3 1.5 1.5 2.3 3.5 2.3 5.6.1 4.4-3.5 8-7.9 8z"></path>
  </symbol>
  <symbol xmlns="http://www.w3.org/2000/svg" viewBox="0 0 32 32" id="social-2_round-whatsapp">
    <path fill="#444" d="M16 0C7.2 0 0 7.2 0 16s7.2 16 16 16 16-7.2 16-16S24.8 0 16 0zm3.4 10.4c-.7 0-1.1.6-1.1 1.8 0 2.5 1.6 3.9 3.6 3.9.4 0 .8 0 1.2-.1v1.9c-.7.2-1.3.2-1.9.2-1.3 2.8-3.8 5.2-4.6 5.7-.5.3-1 .3-1.6 0-1-.6-4.7-3.7-6-13.3h2.7c.7 5.8 2.4 8.8 4.2 11 1-1 2-2.4 2.8-3.9-1.8-.9-2.9-3-2.9-5.3 0-2.4 1.4-4.2 3.7-4.2 2.3 0 3.5 1.4 3.5 3.9 0 .9-.2 1.9-.6 2.8-1.7.3-2.3-.8-2.3-.8.1-.4.3-1.1.3-1.8 0-1.2-.4-1.8-1-1.8z"></path>
  </symbol>
  <symbol xmlns="http://www.w3.org/2000/svg" viewBox="0 0 32 32" id="social-2_round-yelp">
    <path fill="#444" d="M16 0C7.2 0 0 7.2 0 16s7.2 16 16 16 16-7.2 16-16S24.8 0 16 0zm-5.8 19c-.1-.1-.1-.4-.2-.7-.1-.9 0-2.2.3-2.6.1-.2.3-.3.5-.3.1 0 .2 0 2.8 1.1l.7.3c.3.1.4.4.4.7 0 .3-.2.6-.5.6l-1 .3c-2.3.8-2.4.8-2.6.8-.1.1-.3 0-.4-.2zm5.8 1.9c0 2.5 0 2.6-.1 2.7-.1.2-.2.3-.4.4-.6.1-2.6-.6-3-1.1-.1-.1-.1-.2-.1-.3v-.2c0-.1.1-.2 1.9-2.3l.5-.6c.2-.2.5-.3.8-.2.3.1.5.4.4.6v1zm-.4-5.3c-.1 0-.5.2-1-.6 0 0-3.2-5.2-3.3-5.3 0-.2 0-.4.2-.5.5-.6 3.1-1.3 3.8-1.2.2.1.4.2.4.4s.4 5 .4 6.1c0 1-.4 1.1-.5 1.1zm1.7.3l.7-.9c1.4-2 1.5-2.1 1.6-2.2.2-.1.4-.1.6 0 .6.3 1.7 2 1.8 2.7 0 .2-.1.4-.2.5-.1.1-.2.1-2.9.8-.6.1-.8.2-.9.2-.3.1-.6-.1-.7-.3-.2-.3-.2-.6 0-.8zm2.7 6.9c-.2.1-.4.1-.6-.1-.1-.1-.2-.2-1.6-2.6l-.4-.7c-.2-.2-.1-.6.1-.8.2-.2.5-.3.7-.2l1 .4c2.3.8 2.4.8 2.5.9.2.1.2.3.2.5 0 .6-1.3 2.3-1.9 2.6z"></path>
  </symbol>
</svg>